2, 250733
3, 124521
4, 125526
5, 93702
6, 78163
7, 62161
8, 50853
9, 41170
10, 33310
11, 26665
12, 21844
13, 17708
14, 13996
15, 11429
16, 9171
17, 7369
18, 6000
19, 4966
20, 3982
21, 3162
22, 2518
23, 2084
24, 1747
25, 1359
26, 1112
27, 912
28, 735
29, 603
30, 465
31, 383
32, 319
33, 256
34, 215
35, 181
36, 132
37, 105
38, 79
39, 72
40, 58
41, 47
42, 35
43, 31
44, 19
45, 20
46, 21
47, 10
48, 11
49, 6
50, 3
51, 6
52, 5
53, 3
54, 3
55, 8
56, 3
57, 1
59, 1
78, 1
