10, 3
11, 5
12, 21
13, 17
14, 40
15, 38
16, 69
17, 78
18, 144
19, 148
20, 223
21, 236
22, 395
23, 321
24, 518
25, 475
26, 727
27, 625
28, 831
29, 816
30, 1086
31, 960
32, 1190
33, 1082
34, 1434
35, 1288
36, 1601
37, 1503
38, 1822
39, 1709
40, 1929
41, 1803
42, 2143
43, 1906
44, 2247
45, 2140
46, 2496
47, 2303
48, 2636
49, 2374
50, 2727
51, 2452
52, 2849
53, 2638
54, 2910
55, 2822
56, 3062
57, 2791
58, 3189
59, 2929
60, 3224
61, 3083
62, 3275
63, 3110
64, 3249
65, 3022
66, 3325
67, 3092
68, 3441
69, 3334
70, 3475
71, 3256
72, 3587
73, 3342
74, 3544
75, 3331
76, 3634
77, 3346
78, 3666
79, 3408
80, 3682
81, 3409
82, 3631
83, 3447
84, 3567
85, 3471
86, 3602
87, 3373
88, 3640
89, 3530
90, 3574
91, 3428
92, 3650
93, 3378
94, 3539
95, 3415
96, 3585
97, 3303
98, 3596
99, 3400
100, 3426
101, 3367
102, 3580
103, 3516
104, 3495
105, 3436
106, 3583
107, 3378
108, 3555
109, 3490
110, 3474
111, 3426
112, 3421
113, 3253
114, 3379
115, 3376
116, 3387
117, 3289
118, 3489
119, 3311
120, 3256
121, 3158
122, 3358
123, 3140
124, 3310
125, 3120
126, 3306
127, 3098
128, 3264
129, 3140
130, 3215
131, 3144
132, 3238
133, 3096
134, 3165
135, 2987
136, 3083
137, 3052
138, 3068
139, 3120
140, 3104
141, 3032
142, 2924
143, 3010
144, 3066
145, 2924
146, 3141
147, 2960
148, 2916
149, 2979
150, 2874
151, 2864
152, 2930
153, 2871
154, 2929
155, 2768
156, 2827
157, 2913
158, 2860
159, 2748
160, 2809
161, 2768
162, 2832
163, 2746
164, 2757
165, 2650
166, 2736
167, 2696
168, 2798
169, 2700
170, 2678
171, 2657
172, 2733
173, 2673
174, 2661
175, 2594
176, 2620
177, 2512
178, 2538
179, 2623
180, 2602
181, 2501
182, 2575
183, 2542
184, 2473
185, 2555
186, 2555
187, 2424
188, 2465
189, 2422
190, 2389
191, 2441
192, 2404
193, 2323
194, 2375
195, 2401
196, 2398
197, 2369
198, 2398
199, 2332
200, 2357
201, 2266
202, 2373
203, 2273
204, 2356
205, 2284
206, 2286
207, 2266
208, 2291
209, 2249
210, 2201
211, 2257
212, 2184
213, 2179
214, 2149
215, 2160
216, 2188
217, 2196
218, 2246
219, 2155
220, 2168
221, 2152
222, 2125
223, 2058
224, 2079
225, 2000
226, 2063
227, 2092
228, 2056
229, 2023
230, 1966
231, 2000
232, 1962
233, 1993
234, 1881
235, 1964
236, 1976
237, 1945
238, 1941
239, 2021
240, 1951
241, 1874
242, 1905
243, 1887
244, 1928
245, 1904
246, 1890
247, 1803
248, 1815
249, 1801
250, 1829
251, 1857
252, 1864
253, 1799
254, 1833
255, 1811
256, 1797
257, 1744
258, 1794
259, 1734
260, 1649
261, 1702
262, 1711
263, 1685
264, 1760
265, 1667
266, 1616
267, 1677
268, 1663
269, 1698
270, 1700
271, 1667
272, 1696
273, 1592
274, 1610
275, 1695
276, 1625
277, 1714
278, 1622
279, 1627
280, 1624
281, 1537
282, 1582
283, 1564
284, 1607
285, 1578
286, 1616
287, 1513
288, 1536
289, 1530
290, 1510
291, 1514
292, 1506
293, 1552
294, 1523
295, 1482
296, 1435
297, 1476
298, 1549
299, 1450
300, 1412
301, 1481
302, 1414
303, 1457
304, 1409
305, 1381
306, 1433
307, 1335
308, 1349
309, 1456
310, 1415
311, 1400
312, 1391
313, 1459
314, 1375
315, 1343
316, 1359
317, 1340
318, 1361
319, 1354
320, 1300
321, 1290
322, 1344
323, 1312
324, 1336
325, 1284
326, 1304
327, 1327
328, 1298
329, 1210
330, 1236
331, 1218
332, 1275
333, 1280
334, 1274
335, 1237
336, 1189
337, 1238
338, 1277
339, 1257
340, 1206
341, 1247
342, 1146
343, 1144
344, 1239
345, 1268
346, 1185
347, 1184
348, 1189
349, 1109
350, 1166
351, 1147
352, 1112
353, 1156
354, 1168
355, 1112
356, 1093
357, 1157
358, 1118
359, 1111
360, 1146
361, 1087
362, 1068
363, 1070
364, 1031
365, 1101
366, 1071
367, 1071
368, 1049
369, 1095
370, 1047
371, 968
372, 1075
373, 1053
374, 1004
375, 984
376, 1049
377, 1076
378, 1014
379, 1043
380, 983
381, 1052
382, 1025
383, 1048
384, 990
385, 1016
386, 915
387, 990
388, 969
389, 1018
390, 952
391, 987
392, 886
393, 923
394, 926
395, 980
396, 909
397, 922
398, 924
399, 941
400, 867
401, 918
402, 918
403, 939
404, 920
405, 854
406, 811
407, 901
408, 811
409, 857
410, 880
411, 837
412, 861
413, 826
414, 854
415, 835
416, 816
417, 798
418, 853
419, 833
420, 849
421, 839
422, 825
423, 771
424, 780
425, 843
426, 840
427, 839
428, 822
429, 810
430, 808
431, 857
432, 741
433, 748
434, 830
435, 761
436, 802
437, 747
438, 748
439, 767
440, 778
441, 693
442, 733
443, 746
444, 749
445, 750
446, 697
447, 698
448, 778
449, 759
450, 719
451, 731
452, 698
453, 660
454, 673
455, 723
456, 702
457, 722
458, 653
459, 723
460, 726
461, 689
462, 695
463, 719
464, 674
465, 733
466, 651
467, 623
468, 656
469, 650
470, 706
471, 668
472, 655
473, 626
474, 654
475, 607
476, 637
477, 625
478, 647
479, 630
480, 650
481, 654
482, 669
483, 625
484, 603
485, 623
486, 594
487, 591
488, 583
489, 595
490, 641
491, 597
492, 607
493, 573
494, 609
495, 583
496, 547
497, 619
498, 587
499, 607
500, 595
501, 572
502, 583
503, 529
504, 562
505, 532
506, 526
507, 550
508, 517
509, 566
510, 578
511, 520
512, 512
513, 574
514, 611
515, 516
516, 536
517, 541
518, 493
519, 592
520, 499
521, 540
522, 532
523, 562
524, 532
525, 496
526, 496
527, 513
528, 531
529, 502
530, 483
531, 522
532, 482
533, 523
534, 488
535, 491
536, 517
537, 496
538, 477
539, 486
540, 484
541, 411
542, 476
543, 484
544, 435
545, 428
546, 497
547, 479
548, 460
549, 440
550, 439
551, 421
552, 465
553, 412
554, 444
555, 464
556, 431
557, 445
558, 417
559, 386
560, 476
561, 430
562, 414
563, 408
564, 395
565, 461
566, 419
567, 430
568, 433
569, 390
570, 430
571, 399
572, 446
573, 419
574, 426
575, 418
576, 398
577, 410
578, 388
579, 384
580, 433
581, 366
582, 354
583, 386
584, 380
585, 376
586, 341
587, 390
588, 395
589, 375
590, 397
591, 363
592, 427
593, 346
594, 386
595, 357
596, 369
597, 348
598, 359
599, 345
600, 346
601, 365
602, 374
603, 377
604, 342
605, 372
606, 368
607, 373
608, 336
609, 328
610, 359
611, 353
612, 346
613, 336
614, 364
615, 331
616, 312
617, 330
618, 307
619, 286
620, 319
621, 326
622, 292
623, 333
624, 324
625, 312
626, 311
627, 318
628, 318
629, 293
630, 309
631, 298
632, 313
633, 315
634, 273
635, 299
636, 310
637, 341
638, 322
639, 320
640, 288
641, 304
642, 300
643, 322
644, 302
645, 309
646, 291
647, 246
648, 276
649, 293
650, 270
651, 304
652, 283
653, 319
654, 274
655, 274
656, 272
657, 304
658, 296
659, 236
660, 262
661, 268
662, 290
663, 289
664, 268
665, 246
666, 248
667, 238
668, 248
669, 256
670, 251
671, 287
672, 247
673, 274
674, 285
675, 266
676, 242
677, 276
678, 257
679, 228
680, 259
681, 221
682, 226
683, 274
684, 254
685, 254
686, 244
687, 230
688, 257
689, 227
690, 230
691, 210
692, 254
693, 234
694, 226
695, 225
696, 245
697, 211
698, 222
699, 244
700, 223
701, 207
702, 250
703, 245
704, 218
705, 217
706, 220
707, 227
708, 216
709, 216
710, 228
711, 228
712, 204
713, 232
714, 214
715, 223
716, 219
717, 226
718, 183
719, 198
720, 196
721, 194
722, 200
723, 206
724, 184
725, 208
726, 187
727, 176
728, 206
729, 192
730, 215
731, 231
732, 178
733, 172
734, 219
735, 173
736, 196
737, 191
738, 194
739, 196
740, 180
741, 184
742, 158
743, 181
744, 184
745, 191
746, 198
747, 178
748, 178
749, 177
750, 168
751, 178
752, 186
753, 176
754, 172
755, 187
756, 193
757, 180
758, 198
759, 183
760, 191
761, 166
762, 168
763, 158
764, 175
765, 183
766, 169
767, 177
768, 175
769, 163
770, 156
771, 155
772, 160
773, 160
774, 156
775, 165
776, 179
777, 179
778, 170
779, 164
780, 149
781, 173
782, 166
783, 140
784, 141
785, 138
786, 177
787, 145
788, 152
789, 152
790, 147
791, 127
792, 137
793, 174
794, 155
795, 172
796, 153
797, 145
798, 146
799, 139
800, 154
801, 145
802, 124
803, 154
804, 120
805, 151
806, 127
807, 128
808, 114
809, 120
810, 119
811, 136
812, 129
813, 125
814, 118
815, 118
816, 133
817, 118
818, 108
819, 125
820, 144
821, 120
822, 135
823, 126
824, 128
825, 127
826, 101
827, 126
828, 116
829, 108
830, 115
831, 129
832, 130
833, 113
834, 117
835, 127
836, 125
837, 114
838, 108
839, 121
840, 128
841, 121
842, 114
843, 116
844, 97
845, 118
846, 116
847, 110
848, 107
849, 111
850, 110
851, 117
852, 114
853, 128
854, 111
855, 120
856, 132
857, 115
858, 95
859, 97
860, 116
861, 95
862, 104
863, 106
864, 93
865, 95
866, 103
867, 96
868, 121
869, 99
870, 95
871, 119
872, 119
873, 105
874, 102
875, 94
876, 100
877, 85
878, 107
879, 98
880, 95
881, 109
882, 83
883, 104
884, 107
885, 100
886, 92
887, 79
888, 98
889, 83
890, 97
891, 97
892, 103
893, 68
894, 97
895, 91
896, 86
897, 81
898, 80
899, 90
900, 82
901, 94
902, 80
903, 89
904, 97
905, 100
906, 67
907, 106
908, 92
909, 73
910, 77
911, 76
912, 76
913, 94
914, 74
915, 80
916, 72
917, 92
918, 81
919, 103
920, 80
921, 76
922, 75
923, 77
924, 81
925, 81
926, 94
927, 69
928, 97
929, 82
930, 80
931, 74
932, 79
933, 66
934, 79
935, 69
936, 73
937, 90
938, 64
939, 79
940, 72
941, 78
942, 76
943, 75
944, 71
945, 69
946, 77
947, 62
948, 77
949, 71
950, 85
951, 68
952, 63
953, 63
954, 68
955, 66
956, 66
957, 63
958, 70
959, 77
960, 74
961, 58
962, 73
963, 64
964, 73
965, 76
966, 65
967, 64
968, 60
969, 61
970, 71
971, 74
972, 70
973, 52
974, 60
975, 65
976, 68
977, 58
978, 91
979, 66
980, 66
981, 73
982, 51
983, 59
984, 71
985, 50
986, 50
987, 46
988, 55
989, 56
990, 66
991, 51
992, 55
993, 73
994, 45
995, 71
996, 66
997, 48
998, 53
999, 54
1000, 64
1001, 54
1002, 67
1003, 55
1004, 52
1005, 45
1006, 65
1007, 62
1008, 45
1009, 58
1010, 56
1011, 54
1012, 56
1013, 54
1014, 62
1015, 59
1016, 41
1017, 53
1018, 45
1019, 59
1020, 41
1021, 53
1022, 52
1023, 50
1024, 44
1025, 54
1026, 41
1027, 47
1028, 53
1029, 38
1030, 51
1031, 47
1032, 50
1033, 44
1034, 41
1035, 39
1036, 37
1037, 54
1038, 53
1039, 52
1040, 40
1041, 47
1042, 42
1043, 43
1044, 45
1045, 53
1046, 48
1047, 47
1048, 42
1049, 40
1050, 39
1051, 33
1052, 56
1053, 47
1054, 45
1055, 45
1056, 47
1057, 37
1058, 43
1059, 36
1060, 52
1061, 44
1062, 35
1063, 36
1064, 43
1065, 40
1066, 56
1067, 41
1068, 43
1069, 46
1070, 40
1071, 40
1072, 36
1073, 28
1074, 45
1075, 38
1076, 38
1077, 36
1078, 42
1079, 34
1080, 28
1081, 30
1082, 37
1083, 48
1084, 28
1085, 35
1086, 45
1087, 41
1088, 28
1089, 39
1090, 41
1091, 29
1092, 41
1093, 35
1094, 41
1095, 40
1096, 34
1097, 47
1098, 41
1099, 37
1100, 42
1101, 28
1102, 30
1103, 36
1104, 30
1105, 20
1106, 23
1107, 33
1108, 46
1109, 37
1110, 38
1111, 34
1112, 31
1113, 30
1114, 34
1115, 35
1116, 30
1117, 40
1118, 31
1119, 31
1120, 42
1121, 33
1122, 49
1123, 37
1124, 35
1125, 31
1126, 28
1127, 37
1128, 38
1129, 35
1130, 35
1131, 30
1132, 41
1133, 26
1134, 23
1135, 27
1136, 31
1137, 38
1138, 29
1139, 38
1140, 32
1141, 32
1142, 38
1143, 36
1144, 29
1145, 30
1146, 28
1147, 25
1148, 27
1149, 36
1150, 22
1151, 27
1152, 34
1153, 28
1154, 21
1155, 34
1156, 27
1157, 28
1158, 30
1159, 20
1160, 34
1161, 36
1162, 29
1163, 30
1164, 27
1165, 30
1166, 25
1167, 23
1168, 21
1169, 22
1170, 30
1171, 20
1172, 19
1173, 24
1174, 19
1175, 17
1176, 29
1177, 19
1178, 25
1179, 19
1180, 25
1181, 19
1182, 17
1183, 31
1184, 18
1185, 22
1186, 23
1187, 25
1188, 22
1189, 29
1190, 27
1191, 26
1192, 17
1193, 28
1194, 20
1195, 22
1196, 22
1197, 21
1198, 17
1199, 21
1200, 28
1201, 18
1202, 20
1203, 24
1204, 19
1205, 15
1206, 20
1207, 27
1208, 22
1209, 16
1210, 20
1211, 24
1212, 30
1213, 26
1214, 15
1215, 17
1216, 28
1217, 21
1218, 12
1219, 15
1220, 29
1221, 18
1222, 17
1223, 26
1224, 18
1225, 26
1226, 21
1227, 14
1228, 22
1229, 19
1230, 18
1231, 15
1232, 25
1233, 20
1234, 9
1235, 17
1236, 31
1237, 18
1238, 23
1239, 23
1240, 16
1241, 20
1242, 16
1243, 12
1244, 16
1245, 17
1246, 12
1247, 19
1248, 22
1249, 18
1250, 21
1251, 20
1252, 18
1253, 21
1254, 21
1255, 12
1256, 21
1257, 12
1258, 13
1259, 17
1260, 15
1261, 15
1262, 16
1263, 15
1264, 18
1265, 19
1266, 13
1267, 10
1268, 5
1269, 10
1270, 19
1271, 14
1272, 17
1273, 17
1274, 11
1275, 18
1276, 16
1277, 17
1278, 14
1279, 18
1280, 22
1281, 11
1282, 15
1283, 14
1284, 14
1285, 6
1286, 16
1287, 14
1288, 12
1289, 17
1290, 14
1291, 16
1292, 10
1293, 12
1294, 14
1295, 20
1296, 11
1297, 18
1298, 14
1299, 17
1300, 15
1301, 16
1302, 14
1303, 15
1304, 8
1305, 11
1306, 15
1307, 16
1308, 12
1309, 17
1310, 19
1311, 6
1312, 16
1313, 15
1314, 11
1315, 11
1316, 9
1317, 11
1318, 20
1319, 20
1320, 11
1321, 8
1322, 8
1323, 10
1324, 14
1325, 12
1326, 14
1327, 14
1328, 17
1329, 13
1330, 14
1331, 11
1332, 12
1333, 9
1334, 11
1335, 15
1336, 13
1337, 13
1338, 8
1339, 15
1340, 14
1341, 8
1342, 6
1343, 12
1344, 11
1345, 10
1346, 8
1347, 11
1348, 13
1349, 13
1350, 18
1351, 7
1352, 10
1353, 14
1354, 7
1355, 11
1356, 7
1357, 9
1358, 9
1359, 16
1360, 6
1361, 7
1362, 12
1363, 11
1364, 6
1365, 7
1366, 13
1367, 7
1368, 11
1369, 9
1370, 11
1371, 16
1372, 10
1373, 11
1374, 11
1375, 8
1376, 9
1377, 11
1378, 9
1379, 6
1380, 11
1381, 8
1382, 9
1383, 8
1384, 10
1385, 7
1386, 10
1387, 10
1388, 4
1389, 9
1390, 7
1391, 6
1392, 9
1393, 6
1394, 6
1395, 13
1396, 10
1397, 7
1398, 9
1399, 8
1400, 9
1401, 9
1402, 4
1403, 12
1404, 11
1405, 11
1406, 10
1407, 3
1408, 7
1409, 3
1410, 9
1411, 8
1412, 7
1413, 14
1414, 10
1415, 7
1416, 7
1417, 10
1418, 7
1419, 2
1420, 8
1421, 5
1422, 4
1423, 3
1424, 10
1425, 8
1426, 12
1427, 6
1428, 6
1429, 8
1430, 6
1431, 10
1432, 7
1433, 7
1434, 5
1435, 3
1436, 6
1437, 13
1438, 5
1439, 7
1440, 3
1441, 7
1442, 8
1443, 3
1444, 4
1445, 12
1446, 4
1447, 6
1448, 8
1449, 5
1450, 7
1451, 4
1452, 5
1453, 7
1454, 7
1455, 6
1456, 6
1457, 11
1458, 6
1459, 3
1460, 6
1461, 9
1462, 7
1463, 5
1464, 4
1465, 8
1466, 7
1467, 11
1468, 6
1469, 9
1470, 8
1471, 9
1472, 5
1473, 8
1474, 6
1475, 4
1476, 7
1477, 2
1478, 11
1479, 5
1480, 1
1481, 9
1482, 6
1483, 1
1484, 3
1485, 6
1486, 9
1487, 5
1488, 6
1489, 4
1490, 6
1491, 8
1492, 5
1493, 4
1494, 5
1495, 8
1496, 3
1497, 4
1498, 7
1499, 9
1500, 7
1501, 8
1502, 6
1503, 4
1504, 5
1505, 6
1506, 3
1507, 2
1508, 10
1509, 2
1510, 5
1511, 5
1512, 5
1513, 5
1514, 1
1515, 4
1516, 5
1517, 7
1518, 2
1519, 2
1520, 7
1521, 4
1522, 4
1523, 5
1524, 4
1525, 4
1526, 12
1527, 7
1528, 5
1529, 7
1530, 3
1532, 5
1533, 1
1534, 6
1535, 1
1536, 5
1537, 2
1538, 10
1539, 6
1540, 4
1541, 4
1542, 7
1543, 8
1544, 5
1545, 5
1546, 9
1547, 4
1548, 6
1549, 5
1550, 4
1551, 5
1552, 6
1553, 3
1554, 5
1555, 3
1556, 1
1557, 1
1559, 7
1560, 3
1561, 3
1562, 6
1563, 2
1564, 2
1565, 4
1566, 6
1567, 2
1568, 8
1569, 5
1570, 7
1571, 3
1572, 3
1573, 7
1574, 4
1575, 4
1576, 3
1577, 2
1578, 5
1579, 5
1580, 5
1581, 2
1582, 3
1583, 2
1584, 6
1585, 3
1586, 3
1587, 3
1588, 1
1589, 6
1590, 1
1591, 4
1592, 2
1593, 5
1594, 3
1595, 3
1596, 6
1597, 4
1598, 2
1599, 4
1600, 3
1601, 2
1602, 2
1603, 4
1605, 5
1606, 4
1607, 4
1608, 5
1609, 5
1610, 2
1611, 2
1612, 1
1613, 4
1614, 1
1615, 4
1616, 3
1617, 3
1618, 1
1619, 2
1620, 2
1621, 2
1622, 5
1623, 1
1624, 3
1625, 3
1626, 3
1628, 4
1629, 1
1630, 7
1631, 1
1632, 4
1633, 2
1635, 4
1636, 3
1637, 1
1638, 2
1639, 3
1640, 1
1641, 1
1643, 1
1644, 7
1645, 2
1646, 3
1647, 1
1648, 3
1649, 3
1650, 3
1651, 4
1652, 8
1653, 4
1654, 2
1655, 5
1658, 2
1659, 5
1663, 4
1664, 2
1665, 2
1666, 1
1667, 8
1668, 3
1669, 5
1670, 4
1671, 4
1672, 1
1673, 2
1675, 6
1676, 2
1677, 4
1679, 2
1680, 4
1681, 1
1682, 1
1683, 2
1684, 2
1685, 1
1686, 4
1687, 4
1688, 4
1689, 2
1690, 2
1691, 2
1692, 3
1693, 3
1695, 3
1696, 3
1697, 1
1698, 2
1699, 1
1700, 2
1701, 4
1702, 4
1703, 3
1704, 1
1705, 1
1706, 6
1707, 3
1708, 5
1710, 1
1711, 4
1712, 2
1713, 2
1714, 2
1715, 3
1716, 2
1717, 1
1718, 3
1719, 2
1720, 2
1721, 1
1722, 1
1723, 2
1724, 6
1725, 3
1726, 1
1727, 2
1728, 3
1729, 2
1730, 1
1731, 3
1732, 2
1733, 1
1734, 1
1735, 2
1736, 2
1738, 2
1739, 2
1740, 1
1742, 5
1743, 2
1745, 2
1748, 1
1749, 1
1750, 2
1751, 1
1753, 2
1754, 2
1755, 2
1757, 2
1758, 1
1759, 1
1761, 1
1763, 2
1764, 1
1767, 1
1768, 3
1769, 1
1770, 2
1771, 2
1772, 4
1773, 1
1774, 2
1775, 4
1777, 1
1778, 2
1779, 2
1780, 1
1781, 2
1782, 1
1783, 3
1784, 1
1785, 1
1786, 3
1787, 1
1789, 1
1790, 3
1791, 2
1792, 1
1793, 1
1794, 2
1795, 1
1798, 3
1799, 4
1801, 2
1802, 3
1803, 2
1804, 1
1805, 2
1806, 1
1807, 1
1808, 2
1809, 1
1811, 1
1812, 5
1813, 1
1814, 1
1815, 3
1816, 1
1817, 2
1818, 1
1819, 1
1820, 1
1821, 1
1822, 3
1823, 2
1825, 2
1826, 2
1827, 4
1830, 3
1832, 1
1834, 1
1835, 2
1836, 3
1838, 1
1840, 3
1841, 2
1842, 6
1843, 1
1845, 1
1846, 1
1847, 2
1848, 2
1852, 2
1854, 1
1855, 2
1857, 2
1859, 1
1860, 2
1861, 1
1863, 1
1865, 2
1866, 1
1870, 3
1872, 1
1873, 1
1874, 1
1875, 2
1876, 1
1877, 1
1878, 3
1879, 1
1880, 2
1881, 2
1882, 2
1884, 2
1885, 1
1887, 2
1888, 1
1889, 2
1890, 1
1891, 1
1892, 1
1893, 2
1895, 1
1896, 2
1897, 1
1898, 1
1903, 2
1905, 1
1906, 1
1908, 3
1909, 1
1910, 2
1911, 1
1913, 1
1920, 1
1924, 3
1927, 2
1929, 1
1930, 1
1931, 1
1933, 1
1937, 1
1938, 2
1939, 1
1941, 2
1942, 1
1943, 1
1944, 1
1946, 2
1954, 1
1955, 1
1957, 1
1964, 1
1965, 1
1967, 1
1968, 1
1973, 2
1976, 2
1978, 1
1980, 1
1981, 2
1984, 1
1992, 1
1995, 2
1998, 1
2000, 1
2002, 2
2003, 1
2007, 1
2011, 1
2017, 1
2021, 2
2024, 1
2030, 1
2038, 3
2042, 1
2046, 1
2047, 2
2049, 1
2051, 1
2053, 1
2055, 1
2059, 3
2063, 1
2070, 1
2076, 1
2077, 1
2078, 1
2079, 2
2081, 1
2084, 1
2089, 1
2098, 1
2101, 1
2103, 1
2106, 1
2110, 1
2116, 1
2117, 1
2120, 1
2130, 1
2132, 1
2133, 1
2134, 2
2151, 1
2154, 1
2156, 1
2162, 1
2169, 1
2171, 1
2176, 1
2189, 1
2192, 2
2194, 1
2196, 2
2197, 1
2204, 1
2206, 1
2209, 1
2220, 1
2223, 1
2241, 1
2249, 1
2253, 1
2255, 1
2271, 1
2294, 1
2301, 1
2302, 1
2304, 1
2333, 1
2341, 1
2346, 1
2351, 1
2354, 1
2360, 2
2364, 1
2366, 1
2408, 1
2413, 1
2434, 1
2439, 1
2444, 1
2449, 1
2471, 1
2490, 1
2506, 1
2535, 1
2540, 1
2566, 1
2577, 1
2626, 1
2628, 1
2637, 1
2693, 1
2769, 1
2909, 1
