22, 1
24, 1
25, 1
26, 1
27, 2
28, 5
29, 1
30, 6
31, 2
32, 9
33, 2
34, 16
35, 7
36, 26
37, 8
38, 25
39, 7
40, 24
41, 18
42, 47
43, 12
44, 77
45, 16
46, 88
47, 40
48, 118
49, 35
50, 125
51, 49
52, 145
53, 54
54, 196
55, 82
56, 189
57, 87
58, 260
59, 100
60, 294
61, 86
62, 326
63, 133
64, 363
65, 128
66, 414
67, 156
68, 430
69, 166
70, 492
71, 177
72, 572
73, 206
74, 628
75, 225
76, 624
77, 230
78, 626
79, 212
80, 728
81, 254
82, 796
83, 267
84, 792
85, 268
86, 808
87, 326
88, 934
89, 344
90, 893
91, 360
92, 1037
93, 394
94, 1105
95, 377
96, 1065
97, 387
98, 1095
99, 386
100, 1167
101, 382
102, 1261
103, 416
104, 1259
105, 437
106, 1246
107, 455
108, 1368
109, 470
110, 1351
111, 456
112, 1410
113, 522
114, 1427
115, 485
116, 1467
117, 489
118, 1516
119, 532
120, 1500
121, 512
122, 1546
123, 603
124, 1534
125, 525
126, 1626
127, 532
128, 1649
129, 572
130, 1729
131, 550
132, 1674
133, 597
134, 1686
135, 587
136, 1685
137, 627
138, 1741
139, 633
140, 1875
141, 607
142, 1821
143, 614
144, 1819
145, 630
146, 1850
147, 605
148, 1862
149, 651
150, 1870
151, 661
152, 1896
153, 659
154, 1922
155, 680
156, 1849
157, 667
158, 1951
159, 655
160, 1984
161, 659
162, 2039
163, 702
164, 1949
165, 683
166, 2051
167, 667
168, 1968
169, 687
170, 2054
171, 691
172, 1995
173, 679
174, 1987
175, 699
176, 2089
177, 681
178, 2044
179, 769
180, 2014
181, 763
182, 2022
183, 697
184, 2092
185, 683
186, 2044
187, 742
188, 2040
189, 752
190, 2061
191, 677
192, 2035
193, 745
194, 2007
195, 716
196, 1992
197, 699
198, 2067
199, 736
200, 2085
201, 724
202, 2031
203, 762
204, 2107
205, 705
206, 2176
207, 764
208, 2102
209, 729
210, 2087
211, 746
212, 2041
213, 688
214, 2034
215, 694
216, 2076
217, 751
218, 2100
219, 756
220, 2185
221, 751
222, 2189
223, 751
224, 2118
225, 781
226, 2065
227, 710
228, 2067
229, 736
230, 2036
231, 678
232, 2033
233, 719
234, 2005
235, 752
236, 2017
237, 763
238, 2019
239, 720
240, 2128
241, 671
242, 2089
243, 760
244, 2056
245, 716
246, 2066
247, 734
248, 2023
249, 703
250, 2159
251, 745
252, 2025
253, 703
254, 2032
255, 699
256, 2047
257, 747
258, 1971
259, 707
260, 2038
261, 755
262, 2042
263, 672
264, 2088
265, 721
266, 2014
267, 738
268, 1991
269, 701
270, 2131
271, 676
272, 2080
273, 704
274, 2044
275, 714
276, 2047
277, 699
278, 2044
279, 635
280, 2008
281, 724
282, 2058
283, 746
284, 1940
285, 667
286, 1959
287, 707
288, 1932
289, 726
290, 1988
291, 670
292, 1901
293, 717
294, 1995
295, 735
296, 1963
297, 633
298, 1986
299, 695
300, 1981
301, 696
302, 1965
303, 677
304, 1933
305, 679
306, 1997
307, 707
308, 1943
309, 715
310, 1946
311, 620
312, 1901
313, 725
314, 1927
315, 686
316, 1889
317, 706
318, 1924
319, 686
320, 1895
321, 643
322, 1892
323, 665
324, 1877
325, 676
326, 1860
327, 644
328, 1889
329, 690
330, 1917
331, 660
332, 1890
333, 660
334, 1853
335, 659
336, 1870
337, 603
338, 1834
339, 651
340, 1822
341, 659
342, 1869
343, 649
344, 1799
345, 642
346, 1833
347, 622
348, 1828
349, 586
350, 1720
351, 665
352, 1769
353, 628
354, 1720
355, 626
356, 1787
357, 627
358, 1767
359, 598
360, 1747
361, 611
362, 1816
363, 594
364, 1753
365, 641
366, 1751
367, 603
368, 1785
369, 644
370, 1806
371, 598
372, 1725
373, 666
374, 1700
375, 599
376, 1744
377, 640
378, 1776
379, 623
380, 1752
381, 632
382, 1741
383, 583
384, 1703
385, 566
386, 1634
387, 589
388, 1695
389, 611
390, 1641
391, 590
392, 1724
393, 566
394, 1665
395, 599
396, 1616
397, 622
398, 1576
399, 579
400, 1586
401, 586
402, 1594
403, 601
404, 1651
405, 563
406, 1678
407, 562
408, 1646
409, 569
410, 1631
411, 574
412, 1568
413, 590
414, 1667
415, 560
416, 1595
417, 561
418, 1588
419, 566
420, 1592
421, 519
422, 1561
423, 550
424, 1614
425, 555
426, 1577
427, 574
428, 1577
429, 534
430, 1566
431, 555
432, 1523
433, 523
434, 1614
435, 482
436, 1564
437, 538
438, 1543
439, 544
440, 1524
441, 528
442, 1585
443, 555
444, 1561
445, 551
446, 1545
447, 468
448, 1574
449, 562
450, 1479
451, 506
452, 1518
453, 515
454, 1535
455, 527
456, 1540
457, 561
458, 1480
459, 495
460, 1496
461, 533
462, 1512
463, 528
464, 1463
465, 482
466, 1507
467, 494
468, 1410
469, 473
470, 1402
471, 530
472, 1431
473, 442
474, 1494
475, 516
476, 1373
477, 513
478, 1407
479, 514
480, 1422
481, 511
482, 1462
483, 479
484, 1507
485, 501
486, 1463
487, 496
488, 1382
489, 473
490, 1417
491, 490
492, 1381
493, 492
494, 1393
495, 468
496, 1384
497, 490
498, 1406
499, 456
500, 1302
501, 501
502, 1446
503, 510
504, 1361
505, 491
506, 1385
507, 487
508, 1312
509, 471
510, 1342
511, 431
512, 1369
513, 485
514, 1302
515, 470
516, 1375
517, 449
518, 1361
519, 452
520, 1395
521, 443
522, 1272
523, 464
524, 1305
525, 458
526, 1335
527, 428
528, 1323
529, 434
530, 1370
531, 457
532, 1344
533, 469
534, 1271
535, 451
536, 1329
537, 499
538, 1274
539, 421
540, 1296
541, 389
542, 1231
543, 436
544, 1353
545, 425
546, 1236
547, 448
548, 1280
549, 420
550, 1244
551, 438
552, 1342
553, 472
554, 1173
555, 414
556, 1237
557, 420
558, 1260
559, 438
560, 1223
561, 448
562, 1240
563, 434
564, 1168
565, 429
566, 1268
567, 389
568, 1213
569, 416
570, 1202
571, 392
572, 1271
573, 467
574, 1158
575, 414
576, 1132
577, 491
578, 1155
579, 416
580, 1215
581, 401
582, 1189
583, 388
584, 1240
585, 406
586, 1175
587, 436
588, 1187
589, 403
590, 1125
591, 441
592, 1117
593, 387
594, 1184
595, 362
596, 1142
597, 391
598, 1171
599, 428
600, 1157
601, 384
602, 1123
603, 364
604, 1125
605, 386
606, 1131
607, 400
608, 1169
609, 366
610, 1072
611, 400
612, 1042
613, 382
614, 1086
615, 379
616, 1066
617, 353
618, 1085
619, 404
620, 1120
621, 380
622, 1079
623, 384
624, 1081
625, 363
626, 1125
627, 348
628, 1071
629, 382
630, 1101
631, 360
632, 1089
633, 373
634, 1067
635, 384
636, 1093
637, 380
638, 1075
639, 381
640, 1008
641, 411
642, 1025
643, 395
644, 1066
645, 366
646, 1039
647, 365
648, 1074
649, 347
650, 1016
651, 390
652, 1052
653, 375
654, 1091
655, 357
656, 1090
657, 314
658, 1055
659, 383
660, 1066
661, 340
662, 1018
663, 359
664, 1013
665, 346
666, 978
667, 338
668, 1033
669, 385
670, 1023
671, 349
672, 1050
673, 320
674, 1038
675, 345
676, 1024
677, 329
678, 1049
679, 340
680, 930
681, 364
682, 972
683, 336
684, 993
685, 346
686, 959
687, 363
688, 996
689, 332
690, 1012
691, 339
692, 931
693, 327
694, 978
695, 338
696, 968
697, 335
698, 951
699, 320
700, 868
701, 338
702, 945
703, 316
704, 918
705, 293
706, 948
707, 332
708, 908
709, 309
710, 923
711, 319
712, 922
713, 308
714, 912
715, 307
716, 961
717, 328
718, 900
719, 328
720, 882
721, 324
722, 867
723, 309
724, 877
725, 351
726, 911
727, 298
728, 954
729, 338
730, 892
731, 321
732, 904
733, 290
734, 875
735, 293
736, 883
737, 344
738, 888
739, 340
740, 893
741, 286
742, 839
743, 304
744, 832
745, 309
746, 896
747, 308
748, 838
749, 304
750, 906
751, 309
752, 835
753, 256
754, 882
755, 306
756, 843
757, 291
758, 827
759, 284
760, 852
761, 320
762, 904
763, 270
764, 796
765, 287
766, 813
767, 289
768, 852
769, 289
770, 863
771, 275
772, 827
773, 286
774, 846
775, 280
776, 870
777, 295
778, 824
779, 258
780, 816
781, 260
782, 834
783, 268
784, 799
785, 274
786, 818
787, 286
788, 810
789, 260
790, 769
791, 281
792, 755
793, 271
794, 803
795, 284
796, 808
797, 255
798, 795
799, 277
800, 757
801, 293
802, 707
803, 262
804, 775
805, 294
806, 802
807, 253
808, 794
809, 268
810, 778
811, 304
812, 773
813, 257
814, 731
815, 263
816, 766
817, 245
818, 761
819, 266
820, 793
821, 255
822, 754
823, 240
824, 801
825, 269
826, 704
827, 258
828, 815
829, 248
830, 751
831, 257
832, 740
833, 251
834, 732
835, 242
836, 725
837, 273
838, 686
839, 270
840, 741
841, 231
842, 732
843, 238
844, 721
845, 245
846, 741
847, 244
848, 733
849, 235
850, 707
851, 254
852, 752
853, 268
854, 760
855, 259
856, 722
857, 259
858, 672
859, 229
860, 770
861, 252
862, 716
863, 246
864, 737
865, 249
866, 713
867, 270
868, 681
869, 252
870, 687
871, 248
872, 664
873, 265
874, 688
875, 212
876, 686
877, 238
878, 728
879, 257
880, 671
881, 239
882, 641
883, 227
884, 678
885, 235
886, 686
887, 219
888, 606
889, 228
890, 669
891, 209
892, 663
893, 240
894, 672
895, 223
896, 659
897, 262
898, 665
899, 241
900, 627
901, 258
902, 660
903, 257
904, 646
905, 207
906, 645
907, 227
908, 658
909, 225
910, 691
911, 244
912, 646
913, 194
914, 665
915, 210
916, 645
917, 230
918, 615
919, 208
920, 579
921, 219
922, 600
923, 231
924, 620
925, 212
926, 601
927, 215
928, 601
929, 225
930, 635
931, 220
932, 604
933, 240
934, 601
935, 231
936, 617
937, 224
938, 594
939, 198
940, 620
941, 186
942, 560
943, 208
944, 584
945, 183
946, 581
947, 218
948, 640
949, 209
950, 600
951, 205
952, 577
953, 226
954, 548
955, 202
956, 596
957, 206
958, 588
959, 205
960, 580
961, 206
962, 578
963, 178
964, 556
965, 206
966, 574
967, 212
968, 583
969, 208
970, 582
971, 209
972, 606
973, 218
974, 589
975, 179
976, 586
977, 175
978, 550
979, 204
980, 588
981, 221
982, 609
983, 203
984, 541
985, 197
986, 557
987, 223
988, 576
989, 178
990, 537
991, 197
992, 534
993, 190
994, 525
995, 208
996, 566
997, 193
998, 575
999, 201
1000, 543
1001, 176
1002, 487
1003, 173
1004, 585
1005, 168
1006, 531
1007, 202
1008, 534
1009, 184
1010, 527
1011, 172
1012, 532
1013, 204
1014, 500
1015, 194
1016, 525
1017, 181
1018, 549
1019, 165
1020, 509
1021, 183
1022, 529
1023, 177
1024, 547
1025, 182
1026, 478
1027, 166
1028, 516
1029, 166
1030, 508
1031, 173
1032, 492
1033, 176
1034, 532
1035, 174
1036, 507
1037, 163
1038, 539
1039, 164
1040, 498
1041, 181
1042, 493
1043, 173
1044, 512
1045, 189
1046, 474
1047, 178
1048, 499
1049, 146
1050, 474
1051, 160
1052, 521
1053, 182
1054, 502
1055, 196
1056, 449
1057, 179
1058, 469
1059, 150
1060, 489
1061, 161
1062, 460
1063, 156
1064, 457
1065, 152
1066, 455
1067, 161
1068, 504
1069, 166
1070, 483
1071, 160
1072, 448
1073, 161
1074, 461
1075, 191
1076, 467
1077, 151
1078, 464
1079, 171
1080, 451
1081, 155
1082, 464
1083, 144
1084, 420
1085, 155
1086, 509
1087, 151
1088, 436
1089, 158
1090, 452
1091, 143
1092, 398
1093, 164
1094, 497
1095, 147
1096, 433
1097, 169
1098, 473
1099, 168
1100, 459
1101, 158
1102, 450
1103, 158
1104, 446
1105, 166
1106, 451
1107, 155
1108, 432
1109, 133
1110, 429
1111, 138
1112, 417
1113, 148
1114, 465
1115, 168
1116, 462
1117, 164
1118, 448
1119, 148
1120, 383
1121, 161
1122, 389
1123, 144
1124, 404
1125, 142
1126, 432
1127, 139
1128, 415
1129, 143
1130, 434
1131, 123
1132, 391
1133, 150
1134, 425
1135, 130
1136, 446
1137, 126
1138, 403
1139, 130
1140, 446
1141, 154
1142, 437
1143, 164
1144, 444
1145, 131
1146, 341
1147, 140
1148, 394
1149, 147
1150, 387
1151, 128
1152, 414
1153, 162
1154, 421
1155, 137
1156, 434
1157, 162
1158, 452
1159, 154
1160, 377
1161, 151
1162, 399
1163, 161
1164, 385
1165, 152
1166, 409
1167, 136
1168, 413
1169, 143
1170, 377
1171, 118
1172, 417
1173, 156
1174, 409
1175, 141
1176, 383
1177, 128
1178, 412
1179, 160
1180, 367
1181, 141
1182, 413
1183, 107
1184, 419
1185, 133
1186, 400
1187, 129
1188, 404
1189, 135
1190, 370
1191, 125
1192, 385
1193, 155
1194, 408
1195, 123
1196, 380
1197, 118
1198, 402
1199, 136
1200, 355
1201, 132
1202, 364
1203, 124
1204, 362
1205, 129
1206, 344
1207, 122
1208, 386
1209, 135
1210, 356
1211, 129
1212, 386
1213, 125
1214, 348
1215, 126
1216, 372
1217, 130
1218, 334
1219, 125
1220, 347
1221, 123
1222, 354
1223, 137
1224, 331
1225, 132
1226, 333
1227, 105
1228, 352
1229, 130
1230, 391
1231, 133
1232, 341
1233, 116
1234, 345
1235, 111
1236, 366
1237, 125
1238, 349
1239, 114
1240, 335
1241, 120
1242, 365
1243, 119
1244, 332
1245, 129
1246, 329
1247, 110
1248, 362
1249, 127
1250, 332
1251, 115
1252, 349
1253, 116
1254, 315
1255, 111
1256, 340
1257, 132
1258, 333
1259, 122
1260, 326
1261, 127
1262, 330
1263, 117
1264, 315
1265, 86
1266, 293
1267, 107
1268, 337
1269, 113
1270, 277
1271, 106
1272, 322
1273, 87
1274, 343
1275, 108
1276, 324
1277, 113
1278, 334
1279, 98
1280, 304
1281, 110
1282, 324
1283, 110
1284, 306
1285, 93
1286, 345
1287, 112
1288, 324
1289, 107
1290, 304
1291, 109
1292, 336
1293, 116
1294, 315
1295, 107
1296, 298
1297, 100
1298, 281
1299, 109
1300, 290
1301, 80
1302, 293
1303, 112
1304, 323
1305, 96
1306, 314
1307, 111
1308, 317
1309, 96
1310, 312
1311, 110
1312, 307
1313, 112
1314, 315
1315, 110
1316, 289
1317, 108
1318, 284
1319, 94
1320, 304
1321, 90
1322, 303
1323, 95
1324, 282
1325, 111
1326, 276
1327, 98
1328, 300
1329, 92
1330, 266
1331, 109
1332, 282
1333, 125
1334, 290
1335, 106
1336, 289
1337, 104
1338, 292
1339, 115
1340, 270
1341, 97
1342, 249
1343, 99
1344, 271
1345, 95
1346, 315
1347, 103
1348, 287
1349, 98
1350, 277
1351, 91
1352, 280
1353, 92
1354, 288
1355, 104
1356, 268
1357, 112
1358, 284
1359, 103
1360, 269
1361, 97
1362, 269
1363, 99
1364, 254
1365, 83
1366, 253
1367, 90
1368, 265
1369, 96
1370, 264
1371, 100
1372, 288
1373, 92
1374, 276
1375, 92
1376, 283
1377, 92
1378, 250
1379, 94
1380, 285
1381, 95
1382, 241
1383, 87
1384, 240
1385, 90
1386, 274
1387, 93
1388, 261
1389, 107
1390, 240
1391, 118
1392, 258
1393, 88
1394, 267
1395, 82
1396, 286
1397, 100
1398, 268
1399, 97
1400, 282
1401, 88
1402, 228
1403, 76
1404, 247
1405, 89
1406, 264
1407, 104
1408, 262
1409, 88
1410, 242
1411, 102
1412, 227
1413, 69
1414, 247
1415, 90
1416, 232
1417, 88
1418, 235
1419, 79
1420, 255
1421, 95
1422, 233
1423, 94
1424, 237
1425, 79
1426, 235
1427, 84
1428, 242
1429, 82
1430, 258
1431, 67
1432, 204
1433, 93
1434, 255
1435, 78
1436, 248
1437, 83
1438, 211
1439, 84
1440, 239
1441, 71
1442, 228
1443, 84
1444, 254
1445, 77
1446, 222
1447, 90
1448, 257
1449, 84
1450, 248
1451, 82
1452, 227
1453, 62
1454, 243
1455, 88
1456, 232
1457, 70
1458, 221
1459, 91
1460, 236
1461, 80
1462, 212
1463, 77
1464, 216
1465, 88
1466, 212
1467, 67
1468, 239
1469, 75
1470, 211
1471, 74
1472, 220
1473, 82
1474, 223
1475, 67
1476, 233
1477, 79
1478, 209
1479, 61
1480, 217
1481, 75
1482, 230
1483, 77
1484, 237
1485, 77
1486, 221
1487, 64
1488, 196
1489, 58
1490, 203
1491, 73
1492, 239
1493, 91
1494, 209
1495, 63
1496, 220
1497, 83
1498, 215
1499, 75
1500, 206
1501, 78
1502, 211
1503, 88
1504, 209
1505, 69
1506, 222
1507, 68
1508, 196
1509, 65
1510, 207
1511, 67
1512, 236
1513, 75
1514, 178
1515, 58
1516, 212
1517, 72
1518, 216
1519, 63
1520, 205
1521, 62
1522, 216
1523, 74
1524, 207
1525, 66
1526, 188
1527, 69
1528, 189
1529, 82
1530, 196
1531, 68
1532, 223
1533, 83
1534, 212
1535, 69
1536, 185
1537, 77
1538, 186
1539, 62
1540, 213
1541, 77
1542, 193
1543, 80
1544, 210
1545, 70
1546, 182
1547, 61
1548, 197
1549, 63
1550, 177
1551, 79
1552, 193
1553, 70
1554, 182
1555, 71
1556, 190
1557, 71
1558, 175
1559, 66
1560, 195
1561, 83
1562, 189
1563, 49
1564, 194
1565, 60
1566, 179
1567, 63
1568, 173
1569, 82
1570, 171
1571, 66
1572, 175
1573, 61
1574, 191
1575, 55
1576, 181
1577, 76
1578, 196
1579, 57
1580, 175
1581, 64
1582, 187
1583, 67
1584, 174
1585, 68
1586, 169
1587, 57
1588, 178
1589, 58
1590, 169
1591, 61
1592, 172
1593, 60
1594, 181
1595, 75
1596, 167
1597, 64
1598, 151
1599, 73
1600, 157
1601, 70
1602, 181
1603, 60
1604, 176
1605, 71
1606, 155
1607, 51
1608, 178
1609, 62
1610, 175
1611, 66
1612, 188
1613, 63
1614, 151
1615, 59
1616, 169
1617, 54
1618, 161
1619, 53
1620, 178
1621, 58
1622, 151
1623, 56
1624, 165
1625, 51
1626, 169
1627, 55
1628, 169
1629, 49
1630, 146
1631, 54
1632, 180
1633, 46
1634, 161
1635, 58
1636, 167
1637, 55
1638, 172
1639, 66
1640, 176
1641, 51
1642, 156
1643, 50
1644, 176
1645, 54
1646, 146
1647, 52
1648, 149
1649, 55
1650, 166
1651, 54
1652, 157
1653, 59
1654, 142
1655, 48
1656, 137
1657, 60
1658, 150
1659, 74
1660, 167
1661, 51
1662, 148
1663, 47
1664, 182
1665, 66
1666, 165
1667, 45
1668, 158
1669, 49
1670, 140
1671, 47
1672, 163
1673, 59
1674, 159
1675, 59
1676, 159
1677, 62
1678, 151
1679, 51
1680, 128
1681, 60
1682, 158
1683, 52
1684, 145
1685, 52
1686, 182
1687, 41
1688, 159
1689, 53
1690, 141
1691, 44
1692, 138
1693, 56
1694, 139
1695, 51
1696, 128
1697, 54
1698, 142
1699, 47
1700, 124
1701, 42
1702, 150
1703, 66
1704, 132
1705, 45
1706, 133
1707, 46
1708, 147
1709, 55
1710, 146
1711, 45
1712, 152
1713, 60
1714, 145
1715, 48
1716, 150
1717, 47
1718, 116
1719, 45
1720, 132
1721, 59
1722, 129
1723, 45
1724, 151
1725, 46
1726, 142
1727, 53
1728, 128
1729, 40
1730, 151
1731, 47
1732, 150
1733, 52
1734, 132
1735, 42
1736, 147
1737, 46
1738, 135
1739, 50
1740, 139
1741, 54
1742, 113
1743, 50
1744, 130
1745, 41
1746, 117
1747, 51
1748, 111
1749, 53
1750, 153
1751, 40
1752, 132
1753, 44
1754, 126
1755, 36
1756, 141
1757, 62
1758, 127
1759, 48
1760, 137
1761, 47
1762, 130
1763, 54
1764, 120
1765, 48
1766, 123
1767, 43
1768, 117
1769, 47
1770, 138
1771, 45
1772, 138
1773, 46
1774, 105
1775, 52
1776, 130
1777, 31
1778, 108
1779, 45
1780, 129
1781, 50
1782, 126
1783, 42
1784, 131
1785, 40
1786, 134
1787, 34
1788, 115
1789, 44
1790, 116
1791, 49
1792, 127
1793, 52
1794, 132
1795, 29
1796, 122
1797, 44
1798, 108
1799, 37
1800, 115
1801, 44
1802, 123
1803, 51
1804, 133
1805, 49
1806, 112
1807, 42
1808, 117
1809, 35
1810, 118
1811, 30
1812, 115
1813, 28
1814, 130
1815, 41
1816, 136
1817, 42
1818, 104
1819, 39
1820, 117
1821, 39
1822, 121
1823, 38
1824, 106
1825, 45
1826, 126
1827, 39
1828, 117
1829, 36
1830, 100
1831, 51
1832, 90
1833, 42
1834, 101
1835, 31
1836, 102
1837, 39
1838, 101
1839, 39
1840, 119
1841, 42
1842, 102
1843, 38
1844, 126
1845, 40
1846, 110
1847, 43
1848, 97
1849, 37
1850, 97
1851, 41
1852, 106
1853, 32
1854, 107
1855, 39
1856, 108
1857, 25
1858, 124
1859, 35
1860, 89
1861, 38
1862, 102
1863, 43
1864, 103
1865, 29
1866, 114
1867, 40
1868, 105
1869, 35
1870, 114
1871, 31
1872, 110
1873, 30
1874, 118
1875, 39
1876, 117
1877, 36
1878, 106
1879, 37
1880, 116
1881, 41
1882, 101
1883, 37
1884, 94
1885, 34
1886, 93
1887, 38
1888, 112
1889, 45
1890, 115
1891, 32
1892, 113
1893, 46
1894, 99
1895, 28
1896, 104
1897, 31
1898, 105
1899, 23
1900, 94
1901, 32
1902, 113
1903, 35
1904, 99
1905, 30
1906, 101
1907, 34
1908, 91
1909, 42
1910, 100
1911, 37
1912, 102
1913, 25
1914, 92
1915, 30
1916, 91
1917, 36
1918, 78
1919, 28
1920, 99
1921, 40
1922, 86
1923, 28
1924, 98
1925, 29
1926, 99
1927, 30
1928, 90
1929, 34
1930, 104
1931, 25
1932, 105
1933, 35
1934, 89
1935, 31
1936, 80
1937, 24
1938, 95
1939, 35
1940, 107
1941, 37
1942, 81
1943, 39
1944, 93
1945, 28
1946, 79
1947, 25
1948, 88
1949, 36
1950, 84
1951, 33
1952, 96
1953, 18
1954, 99
1955, 31
1956, 78
1957, 27
1958, 92
1959, 29
1960, 72
1961, 31
1962, 82
1963, 28
1964, 86
1965, 35
1966, 93
1967, 26
1968, 96
1969, 23
1970, 94
1971, 21
1972, 85
1973, 22
1974, 85
1975, 25
1976, 99
1977, 32
1978, 88
1979, 22
1980, 83
1981, 28
1982, 79
1983, 26
1984, 70
1985, 35
1986, 73
1987, 25
1988, 80
1989, 26
1990, 84
1991, 30
1992, 97
1993, 19
1994, 86
1995, 35
1996, 69
1997, 24
1998, 71
1999, 24
2000, 78
2001, 34
2002, 95
2003, 24
2004, 79
2005, 28
2006, 76
2007, 34
2008, 71
2009, 27
2010, 61
2011, 40
2012, 84
2013, 30
2014, 81
2015, 23
2016, 74
2017, 19
2018, 64
2019, 28
2020, 73
2021, 23
2022, 86
2023, 21
2024, 72
2025, 20
2026, 79
2027, 28
2028, 85
2029, 27
2030, 71
2031, 36
2032, 86
2033, 23
2034, 85
2035, 27
2036, 96
2037, 36
2038, 83
2039, 35
2040, 79
2041, 25
2042, 66
2043, 22
2044, 80
2045, 21
2046, 75
2047, 22
2048, 74
2049, 31
2050, 63
2051, 21
2052, 69
2053, 28
2054, 66
2055, 20
2056, 65
2057, 25
2058, 70
2059, 25
2060, 84
2061, 23
2062, 67
2063, 22
2064, 74
2065, 34
2066, 85
2067, 24
2068, 75
2069, 28
2070, 75
2071, 28
2072, 68
2073, 21
2074, 67
2075, 24
2076, 61
2077, 22
2078, 62
2079, 29
2080, 65
2081, 21
2082, 68
2083, 24
2084, 69
2085, 35
2086, 67
2087, 23
2088, 81
2089, 20
2090, 78
2091, 32
2092, 61
2093, 22
2094, 60
2095, 27
2096, 69
2097, 23
2098, 63
2099, 18
2100, 81
2101, 25
2102, 72
2103, 24
2104, 69
2105, 25
2106, 58
2107, 31
2108, 53
2109, 19
2110, 56
2111, 24
2112, 76
2113, 29
2114, 54
2115, 33
2116, 65
2117, 11
2118, 66
2119, 19
2120, 63
2121, 13
2122, 75
2123, 25
2124, 74
2125, 31
2126, 60
2127, 21
2128, 60
2129, 29
2130, 77
2131, 18
2132, 58
2133, 18
2134, 69
2135, 20
2136, 54
2137, 19
2138, 62
2139, 14
2140, 53
2141, 22
2142, 59
2143, 18
2144, 59
2145, 23
2146, 64
2147, 24
2148, 56
2149, 22
2150, 50
2151, 15
2152, 61
2153, 18
2154, 68
2155, 30
2156, 55
2157, 26
2158, 62
2159, 24
2160, 66
2161, 23
2162, 68
2163, 25
2164, 58
2165, 18
2166, 50
2167, 15
2168, 71
2169, 18
2170, 46
2171, 21
2172, 62
2173, 21
2174, 64
2175, 28
2176, 52
2177, 18
2178, 66
2179, 26
2180, 60
2181, 21
2182, 59
2183, 29
2184, 53
2185, 22
2186, 59
2187, 22
2188, 51
2189, 22
2190, 58
2191, 22
2192, 59
2193, 21
2194, 42
2195, 15
2196, 60
2197, 28
2198, 63
2199, 21
2200, 55
2201, 17
2202, 65
2203, 17
2204, 64
2205, 16
2206, 65
2207, 18
2208, 49
2209, 22
2210, 61
2211, 22
2212, 55
2213, 27
2214, 70
2215, 23
2216, 46
2217, 17
2218, 52
2219, 20
2220, 56
2221, 13
2222, 54
2223, 22
2224, 53
2225, 26
2226, 53
2227, 18
2228, 50
2229, 24
2230, 51
2231, 13
2232, 49
2233, 17
2234, 52
2235, 16
2236, 49
2237, 14
2238, 59
2239, 18
2240, 61
2241, 14
2242, 56
2243, 15
2244, 49
2245, 20
2246, 52
2247, 25
2248, 46
2249, 16
2250, 66
2251, 12
2252, 56
2253, 12
2254, 39
2255, 16
2256, 46
2257, 14
2258, 38
2259, 10
2260, 57
2261, 24
2262, 63
2263, 19
2264, 41
2265, 18
2266, 42
2267, 19
2268, 50
2269, 20
2270, 34
2271, 18
2272, 36
2273, 19
2274, 48
2275, 23
2276, 48
2277, 21
2278, 42
2279, 16
2280, 49
2281, 17
2282, 42
2283, 16
2284, 51
2285, 18
2286, 41
2287, 9
2288, 48
2289, 14
2290, 37
2291, 15
2292, 45
2293, 19
2294, 48
2295, 23
2296, 58
2297, 22
2298, 41
2299, 16
2300, 47
2301, 18
2302, 48
2303, 8
2304, 47
2305, 14
2306, 51
2307, 21
2308, 51
2309, 19
2310, 41
2311, 12
2312, 40
2313, 16
2314, 53
2315, 19
2316, 47
2317, 20
2318, 40
2319, 10
2320, 44
2321, 8
2322, 42
2323, 20
2324, 45
2325, 20
2326, 37
2327, 10
2328, 48
2329, 15
2330, 35
2331, 23
2332, 42
2333, 17
2334, 41
2335, 16
2336, 53
2337, 16
2338, 39
2339, 14
2340, 47
2341, 18
2342, 49
2343, 12
2344, 48
2345, 20
2346, 48
2347, 23
2348, 31
2349, 19
2350, 35
2351, 19
2352, 42
2353, 12
2354, 44
2355, 14
2356, 43
2357, 16
2358, 25
2359, 20
2360, 35
2361, 12
2362, 46
2363, 12
2364, 45
2365, 13
2366, 62
2367, 12
2368, 41
2369, 13
2370, 40
2371, 21
2372, 41
2373, 9
2374, 48
2375, 9
2376, 35
2377, 19
2378, 49
2379, 13
2380, 47
2381, 12
2382, 35
2383, 12
2384, 47
2385, 18
2386, 38
2387, 10
2388, 40
2389, 14
2390, 45
2391, 10
2392, 40
2393, 11
2394, 42
2395, 10
2396, 38
2397, 15
2398, 34
2399, 16
2400, 49
2401, 10
2402, 40
2403, 10
2404, 41
2405, 9
2406, 25
2407, 9
2408, 32
2409, 17
2410, 45
2411, 15
2412, 38
2413, 12
2414, 44
2415, 12
2416, 36
2417, 12
2418, 34
2419, 18
2420, 44
2421, 21
2422, 33
2423, 13
2424, 45
2425, 10
2426, 31
2427, 8
2428, 36
2429, 15
2430, 40
2431, 18
2432, 36
2433, 9
2434, 24
2435, 10
2436, 33
2437, 9
2438, 29
2439, 18
2440, 32
2441, 13
2442, 47
2443, 16
2444, 24
2445, 8
2446, 31
2447, 12
2448, 23
2449, 10
2450, 34
2451, 13
2452, 30
2453, 8
2454, 38
2455, 8
2456, 31
2457, 9
2458, 35
2459, 8
2460, 26
2461, 14
2462, 41
2463, 16
2464, 42
2465, 11
2466, 32
2467, 10
2468, 41
2469, 9
2470, 26
2471, 13
2472, 32
2473, 13
2474, 29
2475, 12
2476, 33
2477, 14
2478, 28
2479, 12
2480, 37
2481, 8
2482, 34
2483, 9
2484, 40
2485, 12
2486, 25
2487, 14
2488, 32
2489, 16
2490, 34
2491, 13
2492, 28
2493, 8
2494, 30
2495, 17
2496, 33
2497, 13
2498, 26
2499, 10
2500, 32
2501, 10
2502, 22
2503, 11
2504, 30
2505, 9
2506, 30
2507, 8
2508, 20
2509, 15
2510, 28
2511, 15
2512, 29
2513, 8
2514, 36
2515, 12
2516, 37
2517, 6
2518, 30
2519, 17
2520, 29
2521, 10
2522, 23
2523, 9
2524, 29
2525, 11
2526, 31
2527, 11
2528, 30
2529, 9
2530, 39
2531, 9
2532, 26
2533, 13
2534, 33
2535, 7
2536, 34
2537, 16
2538, 17
2539, 11
2540, 25
2541, 5
2542, 26
2543, 6
2544, 27
2545, 14
2546, 30
2547, 10
2548, 25
2549, 13
2550, 46
2551, 12
2552, 41
2553, 9
2554, 40
2555, 8
2556, 32
2557, 10
2558, 35
2559, 4
2560, 27
2561, 11
2562, 29
2563, 6
2564, 28
2565, 8
2566, 25
2567, 13
2568, 36
2569, 13
2570, 27
2571, 8
2572, 33
2573, 8
2574, 30
2575, 12
2576, 30
2577, 11
2578, 16
2579, 14
2580, 25
2581, 5
2582, 25
2583, 10
2584, 17
2585, 8
2586, 33
2587, 12
2588, 28
2589, 14
2590, 36
2591, 13
2592, 31
2593, 14
2594, 36
2595, 12
2596, 33
2597, 11
2598, 17
2599, 13
2600, 23
2601, 9
2602, 19
2603, 8
2604, 21
2605, 9
2606, 27
2607, 12
2608, 31
2609, 6
2610, 30
2611, 8
2612, 29
2613, 11
2614, 24
2615, 11
2616, 21
2617, 7
2618, 22
2619, 3
2620, 25
2621, 8
2622, 14
2623, 9
2624, 21
2625, 13
2626, 24
2627, 9
2628, 26
2629, 9
2630, 30
2631, 11
2632, 29
2633, 2
2634, 21
2635, 11
2636, 28
2637, 6
2638, 21
2639, 4
2640, 24
2641, 11
2642, 23
2643, 9
2644, 25
2645, 12
2646, 30
2647, 14
2648, 29
2649, 14
2650, 26
2651, 11
2652, 27
2653, 14
2654, 19
2655, 5
2656, 25
2657, 10
2658, 36
2659, 8
2660, 24
2661, 9
2662, 13
2663, 8
2664, 18
2665, 10
2666, 22
2667, 7
2668, 21
2669, 12
2670, 24
2671, 7
2672, 18
2673, 7
2674, 30
2675, 10
2676, 25
2677, 7
2678, 21
2679, 7
2680, 19
2681, 2
2682, 22
2683, 11
2684, 24
2685, 5
2686, 16
2687, 11
2688, 16
2689, 8
2690, 30
2691, 7
2692, 19
2693, 7
2694, 24
2695, 4
2696, 21
2697, 9
2698, 21
2699, 5
2700, 24
2701, 7
2702, 20
2703, 8
2704, 16
2705, 8
2706, 18
2707, 6
2708, 17
2709, 7
2710, 15
2711, 8
2712, 22
2713, 7
2714, 22
2715, 10
2716, 21
2717, 7
2718, 31
2719, 6
2720, 25
2721, 9
2722, 21
2723, 8
2724, 20
2725, 6
2726, 19
2727, 2
2728, 22
2729, 6
2730, 24
2731, 7
2732, 20
2733, 8
2734, 16
2735, 7
2736, 21
2737, 4
2738, 18
2739, 6
2740, 23
2741, 7
2742, 17
2743, 7
2744, 20
2745, 5
2746, 29
2747, 4
2748, 24
2749, 3
2750, 17
2751, 6
2752, 21
2753, 7
2754, 15
2755, 9
2756, 20
2757, 4
2758, 18
2759, 6
2760, 17
2761, 5
2762, 19
2763, 3
2764, 16
2765, 13
2766, 23
2767, 10
2768, 24
2769, 7
2770, 21
2771, 10
2772, 23
2773, 1
2774, 19
2775, 7
2776, 21
2777, 6
2778, 21
2779, 10
2780, 12
2781, 6
2782, 20
2783, 7
2784, 11
2785, 5
2786, 16
2787, 9
2788, 12
2789, 4
2790, 15
2791, 8
2792, 14
2793, 7
2794, 16
2795, 7
2796, 23
2797, 6
2798, 14
2799, 5
2800, 20
2801, 1
2802, 25
2803, 12
2804, 21
2805, 5
2806, 15
2807, 7
2808, 20
2809, 5
2810, 14
2811, 5
2812, 21
2813, 9
2814, 19
2815, 9
2816, 17
2817, 6
2818, 18
2819, 1
2820, 21
2821, 11
2822, 22
2823, 5
2824, 21
2825, 6
2826, 19
2827, 6
2828, 13
2829, 3
2830, 16
2831, 8
2832, 9
2833, 5
2834, 10
2835, 4
2836, 19
2837, 8
2838, 21
2839, 5
2840, 10
2841, 3
2842, 13
2843, 6
2844, 14
2845, 2
2846, 12
2847, 7
2848, 20
2849, 6
2850, 17
2851, 9
2852, 19
2853, 5
2854, 17
2855, 7
2856, 18
2857, 5
2858, 14
2859, 4
2860, 18
2861, 4
2862, 12
2863, 5
2864, 21
2865, 7
2866, 15
2867, 9
2868, 15
2869, 6
2870, 17
2871, 6
2872, 19
2873, 5
2874, 14
2875, 1
2876, 20
2877, 3
2878, 15
2879, 8
2880, 17
2881, 1
2882, 15
2883, 4
2884, 19
2885, 7
2886, 19
2887, 2
2888, 14
2889, 8
2890, 12
2891, 4
2892, 11
2893, 6
2894, 19
2895, 3
2896, 15
2897, 7
2898, 9
2899, 1
2900, 15
2901, 3
2902, 18
2903, 8
2904, 15
2905, 4
2906, 13
2907, 3
2908, 12
2909, 5
2910, 17
2911, 3
2912, 21
2913, 5
2914, 13
2915, 5
2916, 9
2917, 2
2918, 13
2919, 6
2920, 10
2921, 5
2922, 11
2923, 2
2924, 15
2925, 6
2926, 15
2927, 10
2928, 11
2929, 6
2930, 15
2931, 4
2932, 15
2933, 8
2934, 12
2935, 4
2936, 12
2937, 5
2938, 14
2939, 6
2940, 14
2941, 5
2942, 22
2943, 4
2944, 18
2945, 4
2946, 12
2947, 3
2948, 19
2949, 10
2950, 15
2951, 5
2952, 12
2953, 5
2954, 19
2955, 2
2956, 14
2957, 7
2958, 15
2959, 2
2960, 13
2961, 6
2962, 17
2963, 3
2964, 13
2965, 6
2966, 9
2967, 1
2968, 16
2969, 7
2970, 14
2971, 5
2972, 15
2973, 9
2974, 18
2975, 3
2976, 10
2977, 2
2978, 12
2979, 1
2980, 15
2981, 6
2982, 11
2983, 2
2984, 11
2985, 3
2986, 12
2987, 3
2988, 12
2989, 3
2990, 12
2991, 1
2992, 15
2993, 10
2994, 18
2995, 5
2996, 14
2997, 5
2998, 14
2999, 6
3000, 11
3001, 6
3002, 9
3003, 7
3004, 15
3005, 3
3006, 14
3007, 9
3008, 17
3009, 3
3010, 9
3011, 3
3012, 11
3013, 3
3014, 13
3015, 3
3016, 12
3017, 2
3018, 9
3019, 7
3020, 8
3021, 3
3022, 10
3023, 6
3024, 16
3025, 1
3026, 17
3027, 3
3028, 11
3029, 5
3030, 15
3031, 2
3032, 11
3033, 3
3034, 12
3035, 4
3036, 11
3037, 4
3038, 18
3039, 3
3040, 7
3041, 5
3042, 18
3043, 5
3044, 15
3045, 4
3046, 10
3047, 1
3048, 6
3049, 2
3050, 9
3051, 8
3052, 7
3053, 5
3054, 7
3055, 1
3056, 12
3057, 3
3058, 7
3059, 4
3060, 7
3061, 4
3062, 10
3063, 7
3064, 12
3065, 4
3066, 7
3067, 5
3068, 10
3070, 17
3071, 2
3072, 13
3073, 6
3074, 11
3075, 6
3076, 8
3077, 2
3078, 13
3079, 10
3080, 12
3081, 2
3082, 6
3083, 3
3084, 10
3085, 4
3086, 15
3087, 6
3088, 7
3089, 2
3090, 10
3091, 2
3092, 11
3093, 3
3094, 4
3095, 7
3096, 9
3097, 3
3098, 8
3099, 1
3100, 11
3101, 5
3102, 13
3103, 3
3104, 11
3105, 3
3106, 9
3107, 3
3108, 5
3109, 4
3110, 5
3111, 4
3112, 14
3113, 2
3114, 5
3115, 8
3116, 8
3117, 2
3118, 6
3119, 4
3120, 4
3121, 6
3122, 13
3123, 3
3124, 9
3125, 4
3126, 13
3127, 4
3128, 11
3129, 4
3130, 8
3131, 2
3132, 7
3133, 4
3134, 10
3135, 4
3136, 10
3137, 3
3138, 9
3139, 2
3140, 12
3141, 7
3142, 8
3143, 3
3144, 5
3145, 4
3146, 11
3147, 2
3148, 9
3149, 5
3150, 11
3151, 1
3152, 7
3153, 7
3154, 8
3155, 4
3156, 3
3157, 2
3158, 5
3159, 3
3160, 9
3161, 2
3162, 11
3163, 3
3164, 8
3165, 4
3166, 9
3167, 4
3168, 6
3169, 3
3170, 8
3171, 5
3172, 13
3173, 6
3174, 16
3175, 5
3176, 8
3177, 4
3178, 7
3179, 4
3180, 8
3181, 4
3182, 7
3183, 1
3184, 9
3185, 7
3186, 12
3187, 3
3188, 6
3189, 9
3190, 9
3192, 11
3193, 5
3194, 10
3195, 3
3196, 10
3197, 2
3198, 10
3199, 3
3200, 6
3201, 2
3202, 9
3203, 5
3204, 7
3205, 3
3206, 17
3207, 1
3208, 9
3209, 1
3210, 6
3211, 3
3212, 8
3213, 3
3214, 7
3215, 2
3216, 8
3217, 3
3218, 5
3219, 4
3220, 7
3221, 5
3222, 12
3223, 4
3224, 6
3225, 1
3226, 8
3227, 4
3228, 11
3229, 1
3230, 3
3231, 3
3232, 5
3233, 2
3234, 8
3235, 4
3236, 9
3237, 4
3238, 12
3239, 4
3240, 8
3241, 3
3242, 4
3243, 1
3244, 11
3245, 3
3246, 6
3247, 3
3248, 9
3249, 4
3250, 9
3251, 4
3252, 6
3253, 2
3254, 6
3255, 4
3256, 4
3257, 4
3258, 10
3259, 1
3260, 7
3261, 1
3262, 8
3263, 4
3264, 7
3265, 1
3266, 5
3267, 5
3268, 9
3269, 4
3270, 10
3271, 4
3272, 9
3273, 1
3274, 11
3275, 8
3276, 7
3278, 9
3279, 4
3280, 11
3281, 3
3282, 5
3283, 2
3284, 9
3285, 3
3286, 5
3287, 2
3288, 4
3290, 9
3291, 1
3292, 7
3293, 2
3294, 7
3295, 1
3296, 10
3297, 3
3298, 9
3299, 1
3300, 4
3301, 4
3302, 7
3303, 1
3304, 10
3305, 4
3306, 11
3307, 2
3308, 7
3309, 3
3310, 4
3311, 6
3312, 8
3314, 6
3315, 2
3316, 8
3317, 1
3318, 8
3320, 8
3321, 2
3322, 4
3323, 1
3324, 11
3325, 1
3326, 7
3327, 1
3328, 6
3329, 3
3330, 6
3331, 3
3332, 7
3333, 3
3334, 7
3335, 3
3336, 6
3337, 2
3338, 13
3339, 1
3340, 11
3341, 1
3342, 5
3343, 1
3344, 10
3345, 2
3346, 5
3347, 1
3348, 6
3349, 3
3350, 5
3351, 2
3352, 10
3353, 3
3354, 9
3355, 1
3356, 6
3357, 2
3358, 8
3359, 2
3360, 4
3361, 3
3362, 7
3363, 5
3364, 5
3365, 1
3366, 6
3367, 2
3368, 9
3369, 3
3370, 4
3371, 1
3372, 9
3374, 4
3375, 2
3376, 7
3377, 2
3378, 6
3379, 2
3380, 8
3381, 3
3382, 4
3384, 9
3385, 2
3386, 4
3387, 4
3388, 4
3389, 4
3390, 8
3391, 2
3392, 5
3393, 2
3394, 7
3395, 4
3396, 5
3397, 2
3398, 2
3399, 2
3400, 7
3402, 9
3403, 3
3404, 5
3405, 2
3406, 5
3407, 2
3408, 5
3409, 2
3410, 4
3411, 1
3412, 5
3413, 2
3414, 7
3415, 4
3416, 1
3417, 2
3418, 7
3419, 4
3420, 6
3421, 1
3422, 4
3423, 2
3424, 8
3425, 1
3426, 3
3427, 2
3428, 5
3429, 1
3430, 6
3431, 2
3432, 3
3433, 2
3434, 4
3435, 3
3436, 4
3437, 1
3438, 8
3439, 5
3440, 9
3441, 3
3442, 4
3443, 3
3444, 3
3445, 1
3446, 6
3447, 1
3448, 5
3449, 1
3450, 8
3451, 1
3452, 4
3453, 1
3454, 8
3455, 3
3456, 4
3457, 1
3458, 3
3459, 3
3460, 3
3461, 2
3462, 6
3463, 3
3464, 6
3465, 3
3467, 1
3468, 1
3470, 3
3471, 3
3472, 6
3473, 1
3474, 9
3475, 1
3476, 3
3477, 3
3478, 8
3480, 4
3481, 2
3482, 6
3483, 1
3484, 4
3485, 2
3486, 5
3488, 1
3490, 1
3491, 2
3492, 5
3493, 1
3494, 3
3495, 2
3496, 6
3497, 2
3498, 2
3499, 1
3500, 9
3502, 5
3503, 1
3504, 4
3505, 2
3506, 7
3507, 4
3508, 8
3509, 1
3510, 4
3511, 3
3512, 9
3513, 2
3514, 5
3516, 8
3518, 5
3519, 1
3520, 8
3521, 2
3522, 2
3524, 5
3525, 2
3526, 6
3527, 3
3528, 5
3529, 3
3530, 6
3531, 1
3532, 3
3533, 1
3534, 9
3535, 1
3536, 2
3538, 5
3539, 1
3540, 5
3541, 1
3542, 4
3543, 1
3544, 12
3545, 3
3546, 7
3547, 3
3548, 1
3550, 1
3552, 3
3553, 1
3554, 7
3555, 2
3556, 8
3558, 6
3560, 6
3561, 1
3562, 8
3563, 1
3564, 2
3565, 2
3566, 2
3568, 3
3569, 1
3570, 4
3571, 1
3572, 5
3573, 1
3574, 6
3575, 2
3576, 6
3577, 1
3578, 4
3580, 4
3581, 2
3582, 5
3583, 1
3584, 6
3586, 5
3588, 4
3590, 4
3591, 2
3592, 5
3593, 2
3594, 4
3595, 1
3596, 6
3597, 1
3598, 4
3599, 2
3600, 3
3602, 3
3604, 2
3605, 2
3606, 3
3608, 2
3609, 4
3610, 5
3611, 1
3612, 2
3613, 4
3615, 1
3616, 3
3617, 3
3618, 2
3620, 3
3621, 1
3622, 4
3623, 2
3624, 4
3625, 3
3626, 6
3627, 1
3628, 5
3631, 1
3632, 3
3633, 2
3634, 2
3635, 1
3636, 5
3637, 2
3638, 2
3639, 1
3640, 6
3642, 4
3643, 1
3644, 4
3646, 4
3647, 3
3648, 6
3649, 3
3650, 5
3651, 2
3652, 1
3653, 1
3654, 4
3656, 2
3657, 4
3658, 3
3659, 1
3660, 3
3662, 1
3663, 1
3664, 3
3665, 1
3666, 4
3667, 1
3668, 2
3670, 2
3672, 3
3673, 2
3674, 5
3675, 2
3676, 2
3677, 1
3678, 2
3679, 1
3680, 5
3681, 2
3682, 4
3683, 2
3684, 5
3686, 2
3687, 1
3688, 1
3689, 2
3690, 2
3691, 1
3692, 2
3694, 5
3695, 1
3696, 2
3697, 1
3698, 3
3700, 4
3701, 2
3702, 2
3704, 4
3705, 2
3706, 2
3708, 4
3710, 1
3712, 2
3714, 3
3715, 1
3716, 2
3717, 1
3718, 5
3719, 2
3720, 5
3722, 4
3723, 3
3726, 4
3727, 2
3728, 3
3730, 6
3731, 1
3732, 2
3733, 3
3734, 2
3736, 5
3737, 1
3738, 4
3739, 2
3740, 4
3742, 2
3743, 1
3744, 3
3746, 4
3748, 2
3749, 4
3750, 5
3751, 2
3752, 1
3754, 4
3756, 2
3757, 1
3758, 2
3759, 1
3760, 1
3762, 4
3763, 1
3764, 4
3765, 1
3766, 3
3767, 1
3768, 2
3770, 1
3771, 2
3772, 4
3773, 5
3774, 2
3775, 1
3776, 3
3777, 1
3778, 3
3779, 1
3780, 1
3781, 1
3782, 4
3783, 2
3784, 4
3785, 1
3786, 2
3788, 1
3789, 2
3790, 2
3791, 3
3792, 4
3793, 2
3794, 6
3795, 1
3796, 1
3797, 1
3798, 2
3800, 4
3801, 2
3802, 4
3804, 4
3806, 4
3807, 1
3808, 3
3809, 1
3810, 1
3811, 1
3812, 3
3813, 1
3814, 3
3816, 2
3817, 1
3818, 3
3819, 1
3820, 3
3821, 2
3822, 6
3823, 1
3824, 5
3825, 1
3827, 3
3828, 3
3830, 6
3831, 1
3832, 3
3833, 2
3834, 1
3836, 2
3838, 5
3839, 1
3840, 4
3841, 1
3842, 1
3843, 1
3844, 3
3845, 1
3846, 4
3848, 2
3849, 1
3851, 1
3852, 1
3853, 1
3854, 2
3855, 1
3856, 2
3857, 2
3858, 7
3859, 2
3860, 5
3863, 1
3864, 1
3866, 2
3868, 3
3869, 1
3870, 3
3872, 1
3874, 2
3877, 2
3878, 3
3880, 2
3882, 2
3884, 2
3885, 1
3886, 1
3887, 2
3888, 1
3889, 2
3890, 1
3891, 1
3892, 4
3893, 2
3894, 2
3896, 2
3897, 2
3898, 3
3899, 2
3900, 1
3901, 4
3903, 1
3905, 3
3906, 2
3907, 1
3908, 1
3909, 1
3910, 2
3911, 1
3912, 3
3914, 4
3915, 1
3916, 4
3918, 4
3919, 1
3920, 2
3922, 3
3924, 2
3926, 6
3927, 5
3930, 2
3931, 1
3932, 5
3933, 1
3934, 3
3935, 1
3936, 1
3937, 1
3938, 5
3939, 1
3940, 1
3942, 1
3943, 4
3944, 2
3945, 1
3946, 3
3948, 1
3949, 1
3950, 3
3951, 1
3952, 4
3954, 2
3956, 1
3958, 3
3959, 2
3960, 2
3962, 4
3963, 1
3964, 2
3965, 1
3966, 3
3968, 1
3969, 1
3972, 3
3973, 1
3974, 3
3975, 1
3976, 2
3979, 1
3980, 2
3981, 1
3982, 1
3984, 1
3986, 2
3988, 1
3990, 3
3992, 2
3993, 1
3994, 2
3995, 2
3997, 1
3998, 3
3999, 2
4000, 1
4001, 1
4002, 1
4003, 1
4004, 4
4006, 2
4008, 3
4009, 1
4011, 2
4012, 5
4014, 4
4016, 1
4017, 1
4018, 5
4020, 3
4021, 1
4022, 2
4023, 2
4024, 2
4025, 1
4026, 1
4028, 5
4029, 1
4030, 2
4031, 1
4032, 2
4033, 1
4034, 1
4036, 1
4039, 2
4040, 3
4041, 1
4042, 2
4043, 3
4044, 1
4045, 2
4046, 6
4048, 2
4050, 3
4052, 3
4053, 1
4054, 1
4055, 1
4057, 1
4058, 1
4060, 1
4062, 2
4064, 2
4066, 3
4067, 1
4070, 1
4071, 1
4073, 1
4076, 4
4081, 2
4084, 3
4086, 3
4088, 2
4089, 1
4090, 4
4092, 4
4094, 1
4098, 4
4100, 2
4102, 2
4103, 3
4104, 1
4106, 2
4108, 2
4110, 1
4111, 1
4112, 2
4116, 1
4117, 1
4118, 1
4119, 1
4120, 1
4121, 1
4122, 1
4124, 1
4128, 2
4130, 1
4131, 1
4134, 2
4135, 1
4137, 1
4139, 1
4140, 1
4142, 3
4143, 1
4144, 2
4147, 1
4148, 2
4149, 2
4152, 1
4156, 2
4158, 6
4160, 2
4161, 1
4163, 1
4164, 1
4165, 1
4168, 1
4170, 1
4174, 2
4176, 1
4177, 1
4178, 2
4179, 1
4180, 2
4182, 2
4184, 1
4186, 1
4188, 1
4190, 2
4192, 1
4194, 1
4196, 4
4198, 2
4200, 2
4201, 1
4204, 2
4205, 2
4206, 1
4207, 1
4210, 1
4211, 1
4213, 1
4214, 2
4223, 1
4225, 1
4227, 2
4228, 2
4229, 1
4232, 1
4235, 1
4236, 1
4237, 1
4238, 1
4239, 1
4241, 1
4242, 2
4244, 1
4245, 1
4246, 1
4247, 1
4248, 5
4250, 2
4252, 1
4253, 2
4254, 2
4257, 1
4259, 1
4260, 2
4262, 4
4265, 1
4266, 2
4268, 1
4272, 1
4274, 2
4275, 1
4277, 1
4282, 1
4283, 1
4284, 1
4286, 1
4290, 1
4291, 1
4292, 3
4295, 1
4296, 1
4298, 2
4302, 1
4303, 1
4306, 1
4307, 1
4308, 1
4309, 1
4310, 1
4316, 1
4318, 2
4320, 1
4322, 3
4323, 1
4324, 1
4328, 2
4329, 1
4330, 3
4331, 1
4332, 1
4334, 2
4337, 1
4340, 1
4346, 2
4348, 1
4350, 2
4351, 1
4352, 1
4354, 1
4358, 2
4359, 1
4362, 1
4365, 1
4366, 1
4368, 3
4370, 1
4374, 2
4376, 3
4380, 3
4382, 2
4383, 1
4384, 1
4385, 1
4386, 1
4388, 1
4390, 1
4392, 2
4396, 1
4398, 1
4400, 1
4406, 2
4408, 1
4410, 1
4416, 2
4418, 1
4422, 1
4424, 1
4434, 2
4440, 3
4442, 2
4443, 1
4444, 1
4446, 1
4448, 1
4449, 1
4451, 1
4455, 1
4460, 1
4461, 1
4463, 1
4468, 4
4470, 1
4471, 1
4472, 1
4476, 1
4480, 1
4482, 2
4488, 1
4492, 4
4493, 1
4498, 1
4499, 1
4503, 1
4505, 1
4508, 1
4510, 1
4512, 1
4514, 2
4515, 1
4516, 2
4522, 2
4523, 1
4526, 3
4527, 1
4528, 1
4530, 1
4534, 1
4540, 1
4542, 1
4544, 1
4554, 1
4557, 1
4558, 2
4560, 2
4562, 1
4564, 1
4566, 3
4568, 1
4569, 3
4572, 1
4576, 1
4580, 2
4587, 1
4591, 1
4592, 1
4596, 2
4599, 1
4604, 1
4610, 1
4612, 1
4616, 1
4620, 1
4626, 1
4630, 2
4632, 1
4642, 2
4643, 1
4644, 1
4646, 1
4649, 1
4650, 1
4654, 3
4656, 1
4662, 1
4664, 2
4665, 1
4666, 2
4668, 1
4673, 1
4674, 1
4676, 3
4680, 1
4686, 1
4688, 1
4691, 1
4692, 1
4693, 1
4694, 1
4705, 1
4708, 1
4710, 1
4719, 1
4726, 1
4730, 1
4733, 1
4734, 1
4751, 1
4757, 1
4766, 1
4774, 1
4776, 1
4780, 1
4782, 1
4786, 1
4787, 1
4788, 1
4796, 2
4797, 1
4804, 1
4813, 1
4814, 2
4819, 1
4830, 2
4831, 1
4832, 1
4838, 1
4840, 1
4842, 1
4852, 1
4854, 2
4867, 1
4868, 1
4870, 1
4876, 1
4884, 1
4886, 1
4887, 1
4888, 1
4890, 1
4892, 1
4894, 2
4896, 1
4909, 1
4915, 1
4918, 1
4922, 1
4930, 1
4936, 1
4946, 2
4959, 1
4960, 1
4962, 1
4963, 1
4966, 2
4974, 1
4980, 2
4986, 1
5004, 2
5020, 1
5021, 1
5023, 1
5036, 1
5040, 2
5041, 1
5053, 1
5054, 1
5059, 1
5064, 1
5072, 1
5076, 1
5088, 1
5092, 1
5108, 1
5109, 1
5110, 1
5112, 1
5114, 1
5115, 1
5118, 1
5123, 1
5134, 1
5136, 1
5138, 1
5159, 1
5176, 1
5188, 2
5194, 1
5224, 1
5228, 1
5238, 1
5262, 1
5265, 1
5279, 1
5280, 1
5283, 1
5290, 1
5299, 1
5306, 1
5312, 1
5318, 1
5322, 1
5326, 1
5334, 1
5336, 1
5354, 1
5356, 1
5367, 1
5372, 2
5375, 1
5392, 1
5396, 2
5400, 1
5439, 1
5448, 1
5468, 1
5471, 1
5484, 1
5492, 1
5508, 1
5510, 1
5532, 1
5534, 1
5558, 1
5560, 1
5568, 1
5592, 1
5618, 1
5642, 1
5652, 1
5656, 1
5659, 1
5673, 1
5681, 1
5690, 1
5693, 1
5699, 1
5703, 1
5724, 2
5786, 1
5823, 1
5824, 1
5831, 1
5852, 1
5854, 1
5861, 1
5862, 1
5870, 1
5898, 1
5922, 1
5950, 1
5964, 1
6041, 1
6095, 1
6188, 1
6218, 1
6242, 1
6318, 1
6331, 1
6457, 1
6536, 1
6939, 1
8022, 1
