1, 50261
2, 161553
3, 140232
4, 144154
5, 109403
6, 80481
7, 74044
8, 42842
9, 47443
10, 26080
11, 29997
12, 14938
13, 18988
14, 8939
15, 12372
16, 5444
17, 7768
18, 3550
19, 5128
20, 2320
21, 3354
22, 1533
23, 2194
24, 951
25, 1459
26, 672
27, 944
28, 413
29, 617
30, 266
31, 412
32, 190
33, 258
34, 124
35, 163
36, 75
37, 128
38, 41
39, 60
40, 32
41, 42
42, 22
43, 34
44, 13
45, 11
46, 10
47, 12
48, 2
49, 5
50, 1
51, 6
52, 5
53, 5
54, 2
57, 1
58, 1
60, 1
61, 1
64, 1
66, 1
68, 1
