22, 1
27, 1
29, 1
30, 4
31, 1
32, 5
33, 2
34, 4
35, 1
36, 10
37, 3
38, 14
39, 2
40, 14
41, 12
42, 22
43, 11
44, 34
45, 13
46, 50
47, 10
48, 47
49, 24
50, 57
51, 30
52, 79
53, 36
54, 88
55, 37
56, 97
57, 47
58, 136
59, 55
60, 137
61, 63
62, 169
63, 70
64, 206
65, 99
66, 242
67, 92
68, 272
69, 102
70, 241
71, 133
72, 312
73, 132
74, 327
75, 140
76, 376
77, 131
78, 448
79, 174
80, 427
81, 168
82, 457
83, 187
84, 477
85, 207
86, 570
87, 225
88, 567
89, 247
90, 646
91, 251
92, 673
93, 271
94, 646
95, 272
96, 717
97, 284
98, 761
99, 270
100, 797
101, 299
102, 830
103, 343
104, 822
105, 337
106, 862
107, 358
108, 989
109, 369
110, 998
111, 373
112, 1015
113, 414
114, 1039
115, 400
116, 1044
117, 449
118, 1086
119, 412
120, 1124
121, 435
122, 1175
123, 440
124, 1097
125, 435
126, 1153
127, 505
128, 1225
129, 467
130, 1281
131, 454
132, 1290
133, 487
134, 1313
135, 473
136, 1335
137, 512
138, 1266
139, 530
140, 1325
141, 616
142, 1447
143, 517
144, 1462
145, 588
146, 1414
147, 541
148, 1480
149, 568
150, 1474
151, 595
152, 1455
153, 587
154, 1552
155, 609
156, 1470
157, 619
158, 1549
159, 612
160, 1579
161, 614
162, 1567
163, 608
164, 1530
165, 609
166, 1614
167, 604
168, 1591
169, 629
170, 1591
171, 674
172, 1637
173, 637
174, 1647
175, 655
176, 1649
177, 615
178, 1679
179, 649
180, 1671
181, 619
182, 1686
183, 691
184, 1681
185, 701
186, 1684
187, 681
188, 1718
189, 638
190, 1717
191, 691
192, 1698
193, 677
194, 1771
195, 685
196, 1733
197, 701
198, 1763
199, 685
200, 1757
201, 734
202, 1713
203, 700
204, 1711
205, 678
206, 1807
207, 692
208, 1785
209, 734
210, 1729
211, 674
212, 1805
213, 651
214, 1748
215, 677
216, 1787
217, 720
218, 1738
219, 710
220, 1883
221, 644
222, 1744
223, 705
224, 1774
225, 676
226, 1777
227, 724
228, 1812
229, 696
230, 1782
231, 688
232, 1825
233, 686
234, 1882
235, 673
236, 1853
237, 706
238, 1856
239, 662
240, 1825
241, 697
242, 1853
243, 714
244, 1838
245, 677
246, 1774
247, 714
248, 1791
249, 694
250, 1802
251, 665
252, 1736
253, 731
254, 1772
255, 714
256, 1761
257, 765
258, 1827
259, 712
260, 1845
261, 743
262, 1841
263, 712
264, 1883
265, 715
266, 1831
267, 706
268, 1894
269, 691
270, 1767
271, 693
272, 1785
273, 680
274, 1738
275, 677
276, 1817
277, 707
278, 1705
279, 665
280, 1790
281, 745
282, 1844
283, 724
284, 1754
285, 679
286, 1885
287, 637
288, 1724
289, 729
290, 1756
291, 656
292, 1782
293, 718
294, 1833
295, 687
296, 1764
297, 652
298, 1764
299, 681
300, 1738
301, 694
302, 1784
303, 702
304, 1738
305, 685
306, 1821
307, 608
308, 1717
309, 699
310, 1719
311, 657
312, 1752
313, 711
314, 1692
315, 717
316, 1719
317, 667
318, 1696
319, 686
320, 1833
321, 674
322, 1710
323, 630
324, 1724
325, 660
326, 1763
327, 713
328, 1705
329, 662
330, 1710
331, 678
332, 1645
333, 678
334, 1752
335, 690
336, 1774
337, 656
338, 1600
339, 667
340, 1690
341, 623
342, 1644
343, 674
344, 1688
345, 626
346, 1633
347, 619
348, 1745
349, 639
350, 1717
351, 672
352, 1658
353, 608
354, 1605
355, 656
356, 1600
357, 659
358, 1608
359, 671
360, 1697
361, 649
362, 1678
363, 672
364, 1579
365, 635
366, 1564
367, 653
368, 1585
369, 622
370, 1551
371, 649
372, 1685
373, 667
374, 1636
375, 642
376, 1614
377, 596
378, 1558
379, 628
380, 1530
381, 601
382, 1564
383, 595
384, 1623
385, 644
386, 1603
387, 622
388, 1591
389, 653
390, 1601
391, 608
392, 1630
393, 573
394, 1546
395, 587
396, 1593
397, 592
398, 1572
399, 663
400, 1579
401, 605
402, 1507
403, 579
404, 1508
405, 630
406, 1509
407, 605
408, 1548
409, 605
410, 1517
411, 622
412, 1540
413, 637
414, 1521
415, 589
416, 1522
417, 616
418, 1453
419, 585
420, 1481
421, 575
422, 1527
423, 562
424, 1494
425, 562
426, 1441
427, 550
428, 1492
429, 584
430, 1406
431, 581
432, 1425
433, 570
434, 1448
435, 543
436, 1467
437, 592
438, 1378
439, 559
440, 1464
441, 612
442, 1527
443, 542
444, 1420
445, 553
446, 1426
447, 629
448, 1494
449, 583
450, 1423
451, 580
452, 1385
453, 559
454, 1392
455, 593
456, 1384
457, 577
458, 1476
459, 507
460, 1401
461, 550
462, 1368
463, 547
464, 1340
465, 545
466, 1329
467, 482
468, 1410
469, 514
470, 1390
471, 521
472, 1386
473, 520
474, 1341
475, 509
476, 1347
477, 508
478, 1438
479, 519
480, 1378
481, 549
482, 1376
483, 525
484, 1355
485, 550
486, 1261
487, 527
488, 1328
489, 526
490, 1409
491, 520
492, 1357
493, 520
494, 1286
495, 518
496, 1376
497, 474
498, 1321
499, 508
500, 1378
501, 536
502, 1272
503, 503
504, 1322
505, 535
506, 1284
507, 552
508, 1307
509, 500
510, 1276
511, 538
512, 1302
513, 519
514, 1249
515, 503
516, 1301
517, 524
518, 1220
519, 495
520, 1301
521, 503
522, 1287
523, 493
524, 1317
525, 519
526, 1277
527, 506
528, 1269
529, 546
530, 1269
531, 493
532, 1286
533, 505
534, 1205
535, 499
536, 1342
537, 466
538, 1307
539, 487
540, 1243
541, 491
542, 1188
543, 495
544, 1233
545, 494
546, 1224
547, 498
548, 1137
549, 497
550, 1203
551, 503
552, 1218
553, 464
554, 1149
555, 497
556, 1233
557, 468
558, 1159
559, 501
560, 1174
561, 445
562, 1166
563, 472
564, 1204
565, 475
566, 1182
567, 459
568, 1119
569, 456
570, 1209
571, 509
572, 1260
573, 455
574, 1128
575, 478
576, 1140
577, 477
578, 1142
579, 408
580, 1157
581, 438
582, 1153
583, 450
584, 1087
585, 439
586, 1162
587, 418
588, 1145
589, 471
590, 1152
591, 449
592, 1162
593, 429
594, 1080
595, 448
596, 1224
597, 438
598, 1184
599, 424
600, 1087
601, 423
602, 1094
603, 452
604, 1103
605, 402
606, 1124
607, 428
608, 1036
609, 437
610, 1088
611, 426
612, 1089
613, 433
614, 1088
615, 419
616, 1086
617, 469
618, 1088
619, 432
620, 1052
621, 412
622, 1101
623, 402
624, 1032
625, 424
626, 1002
627, 429
628, 1017
629, 419
630, 1076
631, 432
632, 1034
633, 421
634, 1095
635, 395
636, 1058
637, 442
638, 1054
639, 403
640, 1079
641, 404
642, 1031
643, 396
644, 982
645, 401
646, 1016
647, 404
648, 1076
649, 383
650, 984
651, 386
652, 1039
653, 419
654, 1015
655, 390
656, 1019
657, 352
658, 988
659, 411
660, 1021
661, 379
662, 1019
663, 383
664, 1015
665, 354
666, 936
667, 415
668, 1010
669, 425
670, 1025
671, 405
672, 1027
673, 404
674, 991
675, 402
676, 996
677, 377
678, 976
679, 386
680, 1033
681, 400
682, 953
683, 414
684, 965
685, 352
686, 968
687, 387
688, 957
689, 376
690, 977
691, 309
692, 966
693, 391
694, 926
695, 369
696, 986
697, 391
698, 934
699, 353
700, 935
701, 407
702, 994
703, 374
704, 843
705, 354
706, 924
707, 355
708, 933
709, 329
710, 896
711, 359
712, 946
713, 396
714, 921
715, 333
716, 828
717, 334
718, 922
719, 349
720, 944
721, 353
722, 937
723, 349
724, 911
725, 364
726, 895
727, 358
728, 895
729, 322
730, 929
731, 349
732, 946
733, 356
734, 910
735, 331
736, 970
737, 361
738, 916
739, 362
740, 921
741, 393
742, 925
743, 326
744, 886
745, 383
746, 860
747, 375
748, 886
749, 364
750, 831
751, 340
752, 843
753, 330
754, 876
755, 332
756, 865
757, 352
758, 883
759, 347
760, 856
761, 316
762, 830
763, 348
764, 871
765, 332
766, 859
767, 330
768, 833
769, 349
770, 857
771, 346
772, 856
773, 372
774, 795
775, 351
776, 842
777, 322
778, 819
779, 317
780, 788
781, 322
782, 845
783, 300
784, 858
785, 346
786, 804
787, 296
788, 841
789, 306
790, 813
791, 298
792, 808
793, 327
794, 827
795, 289
796, 829
797, 299
798, 803
799, 302
800, 841
801, 310
802, 749
803, 324
804, 813
805, 267
806, 804
807, 296
808, 734
809, 333
810, 780
811, 323
812, 801
813, 307
814, 718
815, 282
816, 802
817, 285
818, 808
819, 326
820, 752
821, 317
822, 772
823, 278
824, 722
825, 282
826, 800
827, 316
828, 760
829, 292
830, 798
831, 287
832, 771
833, 302
834, 739
835, 305
836, 711
837, 270
838, 699
839, 283
840, 773
841, 305
842, 759
843, 312
844, 781
845, 275
846, 792
847, 291
848, 749
849, 308
850, 770
851, 253
852, 775
853, 286
854, 730
855, 288
856, 730
857, 283
858, 721
859, 275
860, 716
861, 278
862, 671
863, 291
864, 712
865, 259
866, 739
867, 290
868, 709
869, 289
870, 684
871, 327
872, 666
873, 294
874, 719
875, 256
876, 717
877, 266
878, 701
879, 246
880, 733
881, 235
882, 720
883, 279
884, 723
885, 252
886, 718
887, 270
888, 660
889, 262
890, 687
891, 249
892, 742
893, 281
894, 732
895, 263
896, 672
897, 249
898, 648
899, 265
900, 652
901, 261
902, 653
903, 280
904, 651
905, 245
906, 659
907, 245
908, 650
909, 265
910, 701
911, 249
912, 669
913, 282
914, 687
915, 250
916, 698
917, 236
918, 628
919, 261
920, 669
921, 275
922, 632
923, 262
924, 651
925, 259
926, 584
927, 255
928, 639
929, 290
930, 625
931, 237
932, 620
933, 239
934, 635
935, 244
936, 609
937, 248
938, 638
939, 237
940, 632
941, 249
942, 626
943, 249
944, 635
945, 209
946, 628
947, 294
948, 644
949, 232
950, 604
951, 271
952, 638
953, 234
954, 623
955, 243
956, 626
957, 240
958, 632
959, 260
960, 598
961, 224
962, 619
963, 230
964, 634
965, 226
966, 583
967, 241
968, 606
969, 258
970, 633
971, 218
972, 579
973, 219
974, 599
975, 240
976, 593
977, 274
978, 601
979, 234
980, 629
981, 204
982, 580
983, 255
984, 613
985, 228
986, 598
987, 208
988, 622
989, 226
990, 571
991, 218
992, 595
993, 198
994, 625
995, 225
996, 577
997, 225
998, 558
999, 220
1000, 561
1001, 242
1002, 575
1003, 235
1004, 584
1005, 243
1006, 570
1007, 209
1008, 593
1009, 213
1010, 626
1011, 226
1012, 589
1013, 235
1014, 544
1015, 224
1016, 569
1017, 223
1018, 603
1019, 236
1020, 554
1021, 199
1022, 535
1023, 227
1024, 563
1025, 222
1026, 584
1027, 226
1028, 567
1029, 219
1030, 545
1031, 213
1032, 506
1033, 206
1034, 524
1035, 197
1036, 520
1037, 208
1038, 543
1039, 205
1040, 530
1041, 218
1042, 545
1043, 199
1044, 580
1045, 182
1046, 521
1047, 192
1048, 541
1049, 209
1050, 583
1051, 196
1052, 547
1053, 210
1054, 546
1055, 190
1056, 567
1057, 199
1058, 526
1059, 210
1060, 518
1061, 210
1062, 547
1063, 212
1064, 548
1065, 211
1066, 529
1067, 206
1068, 493
1069, 196
1070, 505
1071, 197
1072, 519
1073, 203
1074, 487
1075, 185
1076, 507
1077, 205
1078, 511
1079, 204
1080, 478
1081, 197
1082, 474
1083, 196
1084, 508
1085, 195
1086, 475
1087, 195
1088, 490
1089, 210
1090, 499
1091, 201
1092, 479
1093, 202
1094, 504
1095, 193
1096, 504
1097, 176
1098, 468
1099, 211
1100, 515
1101, 197
1102, 523
1103, 183
1104, 500
1105, 180
1106, 484
1107, 211
1108, 494
1109, 197
1110, 467
1111, 186
1112, 475
1113, 192
1114, 467
1115, 192
1116, 479
1117, 196
1118, 445
1119, 169
1120, 474
1121, 181
1122, 470
1123, 185
1124, 450
1125, 197
1126, 465
1127, 175
1128, 490
1129, 195
1130, 469
1131, 180
1132, 453
1133, 213
1134, 470
1135, 178
1136, 456
1137, 191
1138, 450
1139, 179
1140, 461
1141, 165
1142, 438
1143, 168
1144, 455
1145, 166
1146, 453
1147, 201
1148, 470
1149, 170
1150, 473
1151, 162
1152, 430
1153, 174
1154, 481
1155, 181
1156, 440
1157, 165
1158, 487
1159, 177
1160, 418
1161, 161
1162, 411
1163, 156
1164, 426
1165, 164
1166, 416
1167, 166
1168, 412
1169, 185
1170, 441
1171, 162
1172, 404
1173, 153
1174, 409
1175, 161
1176, 431
1177, 152
1178, 455
1179, 169
1180, 447
1181, 171
1182, 410
1183, 144
1184, 433
1185, 170
1186, 432
1187, 165
1188, 429
1189, 184
1190, 408
1191, 154
1192, 406
1193, 157
1194, 428
1195, 152
1196, 443
1197, 168
1198, 408
1199, 163
1200, 417
1201, 173
1202, 390
1203, 167
1204, 437
1205, 178
1206, 406
1207, 159
1208, 366
1209, 147
1210, 412
1211, 165
1212, 406
1213, 152
1214, 420
1215, 141
1216, 410
1217, 155
1218, 416
1219, 140
1220, 388
1221, 165
1222, 385
1223, 161
1224, 398
1225, 157
1226, 379
1227, 140
1228, 402
1229, 149
1230, 373
1231, 157
1232, 409
1233, 153
1234, 377
1235, 154
1236, 390
1237, 157
1238, 356
1239, 138
1240, 402
1241, 158
1242, 401
1243, 139
1244, 344
1245, 150
1246, 353
1247, 152
1248, 405
1249, 138
1250, 344
1251, 150
1252, 372
1253, 127
1254, 390
1255, 154
1256, 380
1257, 135
1258, 369
1259, 164
1260, 365
1261, 143
1262, 388
1263, 143
1264, 373
1265, 163
1266, 374
1267, 123
1268, 335
1269, 144
1270, 395
1271, 157
1272, 344
1273, 147
1274, 363
1275, 136
1276, 373
1277, 145
1278, 350
1279, 146
1280, 364
1281, 129
1282, 371
1283, 130
1284, 354
1285, 139
1286, 352
1287, 141
1288, 365
1289, 129
1290, 327
1291, 135
1292, 368
1293, 147
1294, 371
1295, 149
1296, 344
1297, 136
1298, 328
1299, 119
1300, 356
1301, 127
1302, 359
1303, 135
1304, 325
1305, 131
1306, 343
1307, 142
1308, 348
1309, 140
1310, 328
1311, 141
1312, 307
1313, 129
1314, 341
1315, 149
1316, 362
1317, 135
1318, 349
1319, 123
1320, 377
1321, 140
1322, 353
1323, 146
1324, 352
1325, 129
1326, 301
1327, 135
1328, 337
1329, 108
1330, 302
1331, 117
1332, 331
1333, 127
1334, 362
1335, 127
1336, 331
1337, 135
1338, 308
1339, 134
1340, 313
1341, 114
1342, 327
1343, 128
1344, 322
1345, 117
1346, 319
1347, 117
1348, 304
1349, 108
1350, 334
1351, 136
1352, 285
1353, 121
1354, 309
1355, 114
1356, 320
1357, 114
1358, 278
1359, 123
1360, 318
1361, 122
1362, 316
1363, 119
1364, 319
1365, 125
1366, 280
1367, 121
1368, 294
1369, 115
1370, 313
1371, 125
1372, 283
1373, 113
1374, 291
1375, 126
1376, 303
1377, 108
1378, 301
1379, 108
1380, 295
1381, 124
1382, 308
1383, 123
1384, 290
1385, 105
1386, 311
1387, 117
1388, 299
1389, 128
1390, 282
1391, 120
1392, 278
1393, 131
1394, 284
1395, 112
1396, 254
1397, 110
1398, 266
1399, 89
1400, 305
1401, 114
1402, 265
1403, 137
1404, 281
1405, 106
1406, 304
1407, 120
1408, 297
1409, 137
1410, 283
1411, 109
1412, 304
1413, 100
1414, 285
1415, 99
1416, 299
1417, 120
1418, 292
1419, 108
1420, 295
1421, 106
1422, 273
1423, 106
1424, 301
1425, 105
1426, 265
1427, 131
1428, 266
1429, 113
1430, 293
1431, 114
1432, 253
1433, 110
1434, 259
1435, 103
1436, 277
1437, 103
1438, 276
1439, 100
1440, 275
1441, 105
1442, 271
1443, 105
1444, 285
1445, 107
1446, 283
1447, 98
1448, 307
1449, 96
1450, 251
1451, 131
1452, 292
1453, 98
1454, 274
1455, 104
1456, 260
1457, 88
1458, 286
1459, 108
1460, 234
1461, 96
1462, 268
1463, 102
1464, 256
1465, 109
1466, 265
1467, 122
1468, 283
1469, 87
1470, 252
1471, 99
1472, 278
1473, 89
1474, 258
1475, 102
1476, 259
1477, 98
1478, 224
1479, 88
1480, 259
1481, 94
1482, 243
1483, 110
1484, 245
1485, 93
1486, 261
1487, 108
1488, 277
1489, 91
1490, 255
1491, 90
1492, 247
1493, 99
1494, 268
1495, 76
1496, 274
1497, 96
1498, 261
1499, 100
1500, 222
1501, 110
1502, 269
1503, 85
1504, 265
1505, 92
1506, 254
1507, 94
1508, 252
1509, 94
1510, 247
1511, 91
1512, 245
1513, 107
1514, 212
1515, 119
1516, 245
1517, 84
1518, 262
1519, 87
1520, 232
1521, 90
1522, 230
1523, 106
1524, 265
1525, 93
1526, 234
1527, 89
1528, 236
1529, 88
1530, 248
1531, 94
1532, 239
1533, 74
1534, 198
1535, 91
1536, 226
1537, 84
1538, 235
1539, 76
1540, 235
1541, 89
1542, 227
1543, 99
1544, 213
1545, 81
1546, 209
1547, 94
1548, 244
1549, 94
1550, 242
1551, 75
1552, 208
1553, 77
1554, 214
1555, 78
1556, 233
1557, 91
1558, 217
1559, 86
1560, 209
1561, 92
1562, 212
1563, 96
1564, 240
1565, 93
1566, 239
1567, 106
1568, 214
1569, 91
1570, 236
1571, 89
1572, 194
1573, 79
1574, 224
1575, 95
1576, 204
1577, 82
1578, 207
1579, 77
1580, 213
1581, 75
1582, 201
1583, 92
1584, 222
1585, 92
1586, 203
1587, 91
1588, 210
1589, 81
1590, 211
1591, 85
1592, 212
1593, 80
1594, 208
1595, 85
1596, 201
1597, 78
1598, 224
1599, 74
1600, 210
1601, 79
1602, 225
1603, 79
1604, 206
1605, 83
1606, 209
1607, 65
1608, 206
1609, 65
1610, 200
1611, 81
1612, 233
1613, 84
1614, 170
1615, 84
1616, 214
1617, 80
1618, 203
1619, 71
1620, 191
1621, 82
1622, 230
1623, 84
1624, 197
1625, 77
1626, 206
1627, 66
1628, 191
1629, 82
1630, 191
1631, 72
1632, 178
1633, 82
1634, 189
1635, 58
1636, 194
1637, 92
1638, 211
1639, 81
1640, 188
1641, 73
1642, 208
1643, 68
1644, 192
1645, 84
1646, 191
1647, 83
1648, 180
1649, 72
1650, 190
1651, 69
1652, 193
1653, 97
1654, 202
1655, 83
1656, 200
1657, 67
1658, 193
1659, 78
1660, 172
1661, 77
1662, 204
1663, 82
1664, 181
1665, 62
1666, 156
1667, 73
1668, 214
1669, 83
1670, 208
1671, 80
1672, 208
1673, 71
1674, 174
1675, 57
1676, 168
1677, 85
1678, 181
1679, 71
1680, 205
1681, 67
1682, 176
1683, 71
1684, 198
1685, 60
1686, 183
1687, 68
1688, 165
1689, 75
1690, 193
1691, 58
1692, 170
1693, 68
1694, 190
1695, 90
1696, 198
1697, 74
1698, 193
1699, 69
1700, 166
1701, 71
1702, 162
1703, 65
1704, 166
1705, 51
1706, 167
1707, 66
1708, 194
1709, 71
1710, 160
1711, 52
1712, 201
1713, 66
1714, 170
1715, 69
1716, 173
1717, 79
1718, 151
1719, 63
1720, 168
1721, 61
1722, 162
1723, 63
1724, 171
1725, 64
1726, 176
1727, 62
1728, 162
1729, 82
1730, 154
1731, 72
1732, 165
1733, 73
1734, 177
1735, 59
1736, 158
1737, 54
1738, 169
1739, 71
1740, 182
1741, 73
1742, 176
1743, 59
1744, 164
1745, 70
1746, 169
1747, 59
1748, 159
1749, 67
1750, 160
1751, 66
1752, 167
1753, 76
1754, 168
1755, 56
1756, 172
1757, 67
1758, 161
1759, 64
1760, 182
1761, 66
1762, 143
1763, 53
1764, 157
1765, 59
1766, 165
1767, 60
1768, 153
1769, 57
1770, 165
1771, 62
1772, 149
1773, 70
1774, 155
1775, 56
1776, 139
1777, 66
1778, 164
1779, 60
1780, 149
1781, 53
1782, 157
1783, 74
1784, 160
1785, 72
1786, 176
1787, 51
1788, 169
1789, 62
1790, 172
1791, 67
1792, 148
1793, 54
1794, 163
1795, 59
1796, 147
1797, 55
1798, 132
1799, 61
1800, 148
1801, 60
1802, 148
1803, 69
1804, 146
1805, 60
1806, 156
1807, 53
1808, 140
1809, 61
1810, 144
1811, 68
1812, 126
1813, 61
1814, 138
1815, 63
1816, 141
1817, 50
1818, 137
1819, 51
1820, 145
1821, 45
1822, 138
1823, 46
1824, 158
1825, 56
1826, 146
1827, 51
1828, 140
1829, 54
1830, 139
1831, 55
1832, 116
1833, 43
1834, 145
1835, 49
1836, 139
1837, 46
1838, 151
1839, 65
1840, 137
1841, 55
1842, 141
1843, 55
1844, 148
1845, 53
1846, 114
1847, 53
1848, 148
1849, 55
1850, 121
1851, 57
1852, 131
1853, 54
1854, 170
1855, 56
1856, 149
1857, 53
1858, 139
1859, 56
1860, 128
1861, 52
1862, 142
1863, 37
1864, 103
1865, 64
1866, 114
1867, 47
1868, 145
1869, 45
1870, 127
1871, 42
1872, 126
1873, 40
1874, 127
1875, 51
1876, 136
1877, 46
1878, 128
1879, 48
1880, 129
1881, 56
1882, 120
1883, 54
1884, 136
1885, 51
1886, 125
1887, 46
1888, 134
1889, 44
1890, 135
1891, 63
1892, 143
1893, 56
1894, 124
1895, 43
1896, 134
1897, 57
1898, 119
1899, 48
1900, 130
1901, 44
1902, 107
1903, 56
1904, 131
1905, 41
1906, 126
1907, 50
1908, 125
1909, 36
1910, 139
1911, 53
1912, 134
1913, 47
1914, 145
1915, 60
1916, 108
1917, 42
1918, 108
1919, 45
1920, 140
1921, 49
1922, 119
1923, 58
1924, 110
1925, 53
1926, 118
1927, 43
1928, 135
1929, 52
1930, 121
1931, 56
1932, 140
1933, 46
1934, 126
1935, 57
1936, 122
1937, 48
1938, 128
1939, 57
1940, 111
1941, 35
1942, 136
1943, 42
1944, 115
1945, 41
1946, 132
1947, 38
1948, 115
1949, 43
1950, 111
1951, 48
1952, 126
1953, 44
1954, 117
1955, 47
1956, 122
1957, 58
1958, 108
1959, 44
1960, 116
1961, 49
1962, 119
1963, 46
1964, 105
1965, 48
1966, 109
1967, 36
1968, 123
1969, 50
1970, 106
1971, 39
1972, 108
1973, 52
1974, 124
1975, 42
1976, 131
1977, 41
1978, 86
1979, 48
1980, 113
1981, 40
1982, 103
1983, 45
1984, 101
1985, 44
1986, 115
1987, 52
1988, 124
1989, 38
1990, 97
1991, 36
1992, 117
1993, 59
1994, 100
1995, 44
1996, 113
1997, 48
1998, 106
1999, 33
2000, 93
2001, 40
2002, 113
2003, 32
2004, 91
2005, 39
2006, 112
2007, 48
2008, 105
2009, 34
2010, 103
2011, 59
2012, 84
2013, 47
2014, 87
2015, 33
2016, 113
2017, 31
2018, 112
2019, 47
2020, 93
2021, 39
2022, 107
2023, 38
2024, 103
2025, 48
2026, 97
2027, 42
2028, 99
2029, 41
2030, 90
2031, 48
2032, 91
2033, 45
2034, 92
2035, 36
2036, 112
2037, 42
2038, 110
2039, 48
2040, 79
2041, 31
2042, 106
2043, 44
2044, 97
2045, 40
2046, 99
2047, 40
2048, 86
2049, 29
2050, 85
2051, 40
2052, 103
2053, 36
2054, 93
2055, 38
2056, 87
2057, 43
2058, 90
2059, 38
2060, 98
2061, 35
2062, 92
2063, 35
2064, 94
2065, 43
2066, 114
2067, 43
2068, 95
2069, 37
2070, 78
2071, 29
2072, 101
2073, 35
2074, 92
2075, 40
2076, 82
2077, 39
2078, 86
2079, 31
2080, 100
2081, 27
2082, 105
2083, 53
2084, 81
2085, 37
2086, 97
2087, 28
2088, 86
2089, 37
2090, 105
2091, 34
2092, 90
2093, 39
2094, 97
2095, 35
2096, 75
2097, 39
2098, 98
2099, 31
2100, 99
2101, 28
2102, 89
2103, 35
2104, 93
2105, 34
2106, 71
2107, 31
2108, 90
2109, 45
2110, 85
2111, 43
2112, 86
2113, 28
2114, 97
2115, 41
2116, 118
2117, 30
2118, 97
2119, 30
2120, 80
2121, 32
2122, 97
2123, 34
2124, 88
2125, 36
2126, 89
2127, 28
2128, 86
2129, 31
2130, 95
2131, 41
2132, 87
2133, 39
2134, 85
2135, 42
2136, 99
2137, 40
2138, 105
2139, 38
2140, 80
2141, 33
2142, 83
2143, 34
2144, 90
2145, 35
2146, 96
2147, 41
2148, 78
2149, 31
2150, 81
2151, 40
2152, 70
2153, 40
2154, 93
2155, 38
2156, 96
2157, 31
2158, 79
2159, 28
2160, 75
2161, 32
2162, 94
2163, 32
2164, 94
2165, 28
2166, 85
2167, 38
2168, 91
2169, 23
2170, 80
2171, 34
2172, 81
2173, 32
2174, 79
2175, 29
2176, 84
2177, 27
2178, 84
2179, 29
2180, 67
2181, 31
2182, 77
2183, 26
2184, 87
2185, 34
2186, 84
2187, 31
2188, 74
2189, 46
2190, 75
2191, 26
2192, 99
2193, 37
2194, 64
2195, 32
2196, 83
2197, 28
2198, 69
2199, 26
2200, 90
2201, 35
2202, 85
2203, 35
2204, 76
2205, 30
2206, 75
2207, 24
2208, 76
2209, 32
2210, 76
2211, 34
2212, 92
2213, 33
2214, 93
2215, 34
2216, 67
2217, 29
2218, 77
2219, 31
2220, 67
2221, 33
2222, 76
2223, 34
2224, 63
2225, 20
2226, 76
2227, 21
2228, 71
2229, 32
2230, 75
2231, 27
2232, 66
2233, 32
2234, 57
2235, 20
2236, 74
2237, 29
2238, 76
2239, 28
2240, 73
2241, 23
2242, 63
2243, 26
2244, 81
2245, 32
2246, 65
2247, 25
2248, 80
2249, 26
2250, 69
2251, 22
2252, 57
2253, 30
2254, 73
2255, 18
2256, 68
2257, 18
2258, 75
2259, 38
2260, 54
2261, 21
2262, 76
2263, 21
2264, 67
2265, 19
2266, 78
2267, 26
2268, 63
2269, 27
2270, 75
2271, 26
2272, 71
2273, 28
2274, 70
2275, 24
2276, 81
2277, 21
2278, 65
2279, 33
2280, 68
2281, 26
2282, 64
2283, 26
2284, 46
2285, 32
2286, 56
2287, 24
2288, 63
2289, 27
2290, 77
2291, 26
2292, 48
2293, 19
2294, 66
2295, 16
2296, 72
2297, 30
2298, 62
2299, 32
2300, 64
2301, 21
2302, 73
2303, 26
2304, 51
2305, 30
2306, 55
2307, 23
2308, 71
2309, 18
2310, 76
2311, 22
2312, 59
2313, 29
2314, 75
2315, 28
2316, 63
2317, 15
2318, 69
2319, 22
2320, 77
2321, 22
2322, 61
2323, 26
2324, 57
2325, 22
2326, 74
2327, 23
2328, 59
2329, 18
2330, 52
2331, 26
2332, 60
2333, 22
2334, 51
2335, 23
2336, 53
2337, 24
2338, 53
2339, 30
2340, 58
2341, 27
2342, 42
2343, 26
2344, 67
2345, 25
2346, 65
2347, 21
2348, 54
2349, 20
2350, 64
2351, 19
2352, 54
2353, 32
2354, 56
2355, 28
2356, 58
2357, 28
2358, 64
2359, 22
2360, 47
2361, 23
2362, 65
2363, 24
2364, 55
2365, 24
2366, 54
2367, 24
2368, 64
2369, 22
2370, 42
2371, 22
2372, 56
2373, 21
2374, 49
2375, 20
2376, 51
2377, 27
2378, 51
2379, 23
2380, 51
2381, 19
2382, 64
2383, 17
2384, 48
2385, 18
2386, 57
2387, 19
2388, 40
2389, 29
2390, 54
2391, 22
2392, 45
2393, 17
2394, 65
2395, 24
2396, 60
2397, 24
2398, 44
2399, 29
2400, 41
2401, 27
2402, 50
2403, 21
2404, 62
2405, 14
2406, 54
2407, 19
2408, 51
2409, 23
2410, 62
2411, 19
2412, 56
2413, 20
2414, 58
2415, 20
2416, 45
2417, 10
2418, 47
2419, 22
2420, 42
2421, 26
2422, 43
2423, 7
2424, 49
2425, 17
2426, 52
2427, 14
2428, 47
2429, 26
2430, 48
2431, 16
2432, 63
2433, 22
2434, 54
2435, 18
2436, 61
2437, 16
2438, 49
2439, 15
2440, 50
2441, 19
2442, 50
2443, 12
2444, 46
2445, 31
2446, 41
2447, 22
2448, 47
2449, 16
2450, 39
2451, 19
2452, 40
2453, 17
2454, 52
2455, 16
2456, 52
2457, 21
2458, 68
2459, 12
2460, 42
2461, 19
2462, 48
2463, 11
2464, 64
2465, 21
2466, 64
2467, 21
2468, 49
2469, 17
2470, 64
2471, 20
2472, 39
2473, 19
2474, 55
2475, 17
2476, 60
2477, 24
2478, 51
2479, 24
2480, 52
2481, 24
2482, 47
2483, 26
2484, 40
2485, 22
2486, 46
2487, 15
2488, 30
2489, 16
2490, 49
2491, 16
2492, 36
2493, 14
2494, 45
2495, 26
2496, 38
2497, 16
2498, 63
2499, 20
2500, 38
2501, 15
2502, 44
2503, 18
2504, 41
2505, 12
2506, 43
2507, 17
2508, 46
2509, 19
2510, 48
2511, 12
2512, 29
2513, 17
2514, 47
2515, 13
2516, 44
2517, 16
2518, 39
2519, 19
2520, 43
2521, 17
2522, 45
2523, 20
2524, 56
2525, 13
2526, 44
2527, 24
2528, 54
2529, 15
2530, 41
2531, 13
2532, 40
2533, 20
2534, 42
2535, 9
2536, 55
2537, 15
2538, 35
2539, 10
2540, 41
2541, 17
2542, 38
2543, 14
2544, 41
2545, 23
2546, 48
2547, 15
2548, 57
2549, 7
2550, 42
2551, 19
2552, 41
2553, 14
2554, 54
2555, 15
2556, 38
2557, 24
2558, 51
2559, 15
2560, 30
2561, 13
2562, 36
2563, 16
2564, 43
2565, 12
2566, 38
2567, 16
2568, 38
2569, 14
2570, 34
2571, 14
2572, 39
2573, 14
2574, 45
2575, 16
2576, 44
2577, 19
2578, 49
2579, 18
2580, 40
2581, 20
2582, 40
2583, 13
2584, 38
2585, 19
2586, 41
2587, 19
2588, 45
2589, 12
2590, 40
2591, 11
2592, 37
2593, 13
2594, 46
2595, 12
2596, 52
2597, 10
2598, 49
2599, 15
2600, 42
2601, 6
2602, 45
2603, 13
2604, 34
2605, 15
2606, 30
2607, 17
2608, 34
2609, 17
2610, 26
2611, 11
2612, 39
2613, 18
2614, 40
2615, 11
2616, 32
2617, 17
2618, 39
2619, 11
2620, 37
2621, 13
2622, 39
2623, 12
2624, 38
2625, 8
2626, 39
2627, 15
2628, 42
2629, 17
2630, 31
2631, 8
2632, 32
2633, 12
2634, 45
2635, 14
2636, 41
2637, 18
2638, 43
2639, 15
2640, 30
2641, 4
2642, 47
2643, 14
2644, 38
2645, 16
2646, 27
2647, 8
2648, 33
2649, 15
2650, 41
2651, 17
2652, 29
2653, 14
2654, 35
2655, 17
2656, 43
2657, 20
2658, 33
2659, 15
2660, 38
2661, 16
2662, 37
2663, 13
2664, 41
2665, 13
2666, 31
2667, 14
2668, 37
2669, 11
2670, 39
2671, 10
2672, 44
2673, 12
2674, 27
2675, 16
2676, 43
2677, 23
2678, 24
2679, 13
2680, 37
2681, 18
2682, 38
2683, 19
2684, 22
2685, 12
2686, 29
2687, 14
2688, 35
2689, 16
2690, 39
2691, 19
2692, 30
2693, 14
2694, 35
2695, 14
2696, 45
2697, 18
2698, 41
2699, 8
2700, 33
2701, 22
2702, 37
2703, 6
2704, 24
2705, 9
2706, 31
2707, 15
2708, 29
2709, 15
2710, 39
2711, 10
2712, 34
2713, 15
2714, 34
2715, 6
2716, 29
2717, 11
2718, 32
2719, 9
2720, 42
2721, 18
2722, 26
2723, 13
2724, 29
2725, 16
2726, 32
2727, 10
2728, 30
2729, 16
2730, 24
2731, 14
2732, 37
2733, 11
2734, 30
2735, 4
2736, 28
2737, 7
2738, 23
2739, 13
2740, 25
2741, 12
2742, 32
2743, 9
2744, 30
2745, 11
2746, 37
2747, 9
2748, 27
2749, 5
2750, 40
2751, 5
2752, 25
2753, 14
2754, 29
2755, 10
2756, 37
2757, 14
2758, 34
2759, 10
2760, 23
2761, 7
2762, 34
2763, 13
2764, 33
2765, 9
2766, 26
2767, 12
2768, 33
2769, 11
2770, 27
2771, 7
2772, 29
2773, 11
2774, 27
2775, 12
2776, 27
2777, 14
2778, 24
2779, 9
2780, 25
2781, 9
2782, 30
2783, 14
2784, 31
2785, 11
2786, 37
2787, 12
2788, 28
2789, 11
2790, 27
2791, 9
2792, 28
2793, 11
2794, 36
2795, 10
2796, 30
2797, 15
2798, 28
2799, 11
2800, 30
2801, 9
2802, 31
2803, 9
2804, 27
2805, 11
2806, 25
2807, 15
2808, 27
2809, 14
2810, 13
2811, 10
2812, 18
2813, 14
2814, 26
2815, 10
2816, 35
2817, 7
2818, 32
2819, 13
2820, 24
2821, 7
2822, 25
2823, 15
2824, 30
2825, 10
2826, 25
2827, 9
2828, 33
2829, 15
2830, 28
2831, 13
2832, 29
2833, 7
2834, 18
2835, 8
2836, 25
2837, 12
2838, 27
2839, 9
2840, 15
2841, 15
2842, 28
2843, 6
2844, 24
2845, 13
2846, 13
2847, 12
2848, 31
2849, 15
2850, 28
2851, 5
2852, 23
2853, 17
2854, 27
2855, 6
2856, 28
2857, 13
2858, 18
2859, 10
2860, 23
2861, 13
2862, 23
2863, 10
2864, 20
2865, 14
2866, 30
2867, 6
2868, 27
2869, 7
2870, 18
2871, 13
2872, 28
2873, 7
2874, 21
2875, 6
2876, 22
2877, 11
2878, 26
2879, 10
2880, 31
2881, 9
2882, 21
2883, 6
2884, 23
2885, 10
2886, 25
2887, 5
2888, 21
2889, 6
2890, 19
2891, 11
2892, 35
2893, 12
2894, 31
2895, 10
2896, 24
2897, 15
2898, 28
2899, 6
2900, 34
2901, 8
2902, 21
2903, 19
2904, 23
2905, 5
2906, 17
2907, 7
2908, 21
2909, 11
2910, 25
2911, 7
2912, 23
2913, 5
2914, 19
2915, 10
2916, 23
2917, 9
2918, 22
2919, 2
2920, 20
2921, 12
2922, 27
2923, 5
2924, 18
2925, 10
2926, 19
2927, 14
2928, 23
2929, 7
2930, 31
2931, 8
2932, 22
2933, 8
2934, 19
2935, 6
2936, 20
2937, 7
2938, 17
2939, 3
2940, 22
2941, 3
2942, 18
2943, 11
2944, 19
2945, 8
2946, 14
2947, 9
2948, 24
2949, 10
2950, 21
2951, 7
2952, 20
2953, 9
2954, 19
2955, 8
2956, 26
2957, 8
2958, 22
2959, 5
2960, 27
2961, 17
2962, 21
2963, 5
2964, 24
2965, 2
2966, 24
2967, 9
2968, 21
2969, 5
2970, 13
2971, 8
2972, 29
2973, 7
2974, 20
2975, 8
2976, 17
2977, 2
2978, 27
2979, 7
2980, 17
2981, 6
2982, 19
2983, 4
2984, 24
2985, 9
2986, 18
2987, 6
2988, 34
2989, 3
2990, 18
2991, 7
2992, 18
2993, 11
2994, 12
2995, 6
2996, 22
2997, 6
2998, 14
2999, 6
3000, 23
3001, 10
3002, 17
3003, 16
3004, 10
3005, 13
3006, 21
3007, 9
3008, 21
3009, 7
3010, 22
3011, 7
3012, 22
3013, 10
3014, 18
3015, 7
3016, 22
3017, 14
3018, 15
3019, 4
3020, 31
3021, 7
3022, 27
3023, 13
3024, 20
3025, 8
3026, 13
3027, 9
3028, 17
3029, 5
3030, 21
3031, 5
3032, 24
3033, 5
3034, 16
3035, 1
3036, 16
3037, 6
3038, 19
3039, 12
3040, 9
3041, 7
3042, 19
3043, 7
3044, 20
3045, 7
3046, 17
3047, 8
3048, 22
3049, 5
3050, 24
3051, 5
3052, 15
3053, 9
3054, 19
3055, 9
3056, 20
3057, 6
3058, 20
3059, 7
3060, 25
3061, 9
3062, 25
3063, 7
3064, 16
3065, 8
3066, 15
3067, 6
3068, 18
3069, 11
3070, 19
3071, 10
3072, 12
3073, 10
3074, 15
3075, 7
3076, 11
3077, 10
3078, 17
3079, 7
3080, 19
3081, 5
3082, 15
3083, 6
3084, 14
3085, 5
3086, 21
3087, 7
3088, 16
3089, 4
3090, 13
3091, 6
3092, 17
3093, 5
3094, 25
3095, 9
3096, 21
3097, 6
3098, 19
3099, 8
3100, 7
3101, 5
3102, 16
3103, 4
3104, 17
3105, 11
3106, 18
3107, 13
3108, 15
3109, 3
3110, 12
3111, 6
3112, 10
3113, 6
3114, 15
3115, 4
3116, 16
3117, 6
3118, 11
3119, 6
3120, 15
3121, 8
3122, 20
3123, 5
3124, 10
3125, 6
3126, 15
3127, 4
3128, 18
3129, 6
3130, 17
3131, 6
3132, 13
3133, 7
3134, 19
3135, 3
3136, 16
3137, 7
3138, 16
3139, 10
3140, 13
3141, 8
3142, 11
3143, 7
3144, 24
3145, 3
3146, 24
3147, 9
3148, 14
3149, 5
3150, 12
3151, 10
3152, 13
3153, 4
3154, 14
3155, 4
3156, 17
3157, 9
3158, 17
3159, 2
3160, 6
3161, 5
3162, 18
3163, 2
3164, 13
3165, 9
3166, 14
3167, 7
3168, 18
3169, 8
3170, 17
3171, 4
3172, 16
3173, 6
3174, 19
3175, 5
3176, 19
3177, 6
3178, 21
3179, 2
3180, 14
3181, 10
3182, 20
3183, 11
3184, 16
3185, 4
3186, 27
3187, 7
3188, 8
3189, 8
3190, 15
3191, 4
3192, 16
3193, 5
3194, 15
3195, 12
3196, 12
3197, 11
3198, 10
3199, 7
3200, 18
3201, 5
3202, 13
3203, 8
3204, 17
3205, 4
3206, 10
3207, 1
3208, 15
3209, 3
3210, 13
3211, 6
3212, 15
3213, 7
3214, 16
3215, 4
3216, 12
3217, 7
3218, 19
3219, 11
3220, 12
3221, 5
3222, 13
3223, 10
3224, 17
3225, 5
3226, 12
3227, 4
3228, 10
3229, 10
3230, 15
3231, 5
3232, 12
3233, 4
3234, 6
3235, 2
3236, 10
3237, 5
3238, 17
3239, 5
3240, 18
3241, 6
3242, 9
3243, 6
3244, 17
3245, 9
3246, 17
3247, 4
3248, 18
3249, 5
3250, 20
3251, 9
3252, 14
3253, 3
3254, 16
3255, 7
3256, 12
3257, 6
3258, 13
3259, 5
3260, 22
3261, 4
3262, 14
3263, 5
3264, 14
3265, 4
3266, 16
3267, 5
3268, 20
3269, 5
3270, 14
3271, 6
3272, 20
3273, 5
3274, 14
3275, 7
3276, 7
3277, 5
3278, 15
3279, 8
3280, 15
3281, 8
3282, 15
3283, 5
3284, 13
3285, 9
3286, 18
3287, 4
3288, 9
3289, 3
3290, 11
3291, 3
3292, 10
3293, 2
3294, 8
3295, 7
3296, 8
3297, 5
3298, 11
3299, 5
3300, 21
3301, 4
3302, 10
3303, 3
3304, 21
3305, 4
3306, 6
3307, 2
3308, 10
3309, 1
3310, 9
3311, 1
3312, 7
3313, 4
3314, 10
3315, 6
3316, 11
3317, 5
3318, 13
3319, 4
3320, 14
3321, 1
3322, 13
3323, 6
3324, 7
3325, 9
3326, 13
3327, 5
3328, 12
3329, 6
3330, 10
3331, 5
3332, 3
3333, 5
3334, 13
3335, 3
3336, 15
3337, 4
3338, 9
3339, 4
3340, 10
3341, 8
3342, 11
3343, 1
3344, 11
3345, 5
3346, 6
3347, 4
3348, 12
3349, 4
3350, 8
3351, 7
3352, 9
3353, 7
3354, 10
3355, 2
3356, 9
3357, 5
3358, 10
3359, 10
3360, 15
3361, 8
3362, 6
3363, 5
3364, 20
3365, 4
3366, 11
3367, 5
3368, 12
3369, 4
3370, 8
3371, 3
3372, 13
3373, 6
3374, 12
3375, 6
3376, 14
3377, 2
3378, 11
3379, 5
3380, 15
3381, 4
3382, 13
3383, 5
3384, 15
3385, 3
3386, 9
3387, 5
3388, 7
3389, 4
3390, 9
3391, 4
3392, 7
3393, 4
3394, 5
3395, 4
3396, 8
3397, 2
3398, 10
3399, 1
3400, 11
3401, 6
3402, 8
3403, 4
3404, 11
3405, 4
3406, 13
3407, 5
3408, 9
3410, 10
3411, 4
3412, 10
3413, 3
3414, 9
3415, 1
3416, 10
3417, 5
3418, 11
3419, 2
3420, 10
3421, 5
3422, 13
3423, 1
3424, 14
3425, 1
3426, 8
3427, 3
3428, 14
3429, 3
3430, 18
3431, 5
3432, 10
3433, 7
3434, 5
3435, 3
3436, 12
3437, 5
3438, 5
3439, 4
3440, 7
3442, 9
3443, 3
3444, 9
3446, 9
3447, 2
3448, 7
3449, 6
3450, 11
3451, 6
3452, 7
3453, 2
3454, 7
3455, 6
3456, 10
3457, 5
3458, 10
3459, 5
3460, 8
3461, 3
3462, 5
3463, 2
3464, 6
3465, 7
3466, 14
3467, 2
3468, 11
3469, 4
3470, 9
3471, 5
3472, 11
3473, 5
3474, 11
3475, 2
3476, 8
3477, 3
3478, 2
3479, 4
3480, 11
3481, 2
3482, 11
3483, 1
3484, 9
3485, 2
3486, 9
3487, 4
3488, 9
3489, 8
3490, 12
3491, 1
3492, 15
3493, 3
3494, 13
3495, 2
3496, 12
3497, 3
3498, 8
3499, 5
3500, 5
3501, 3
3502, 11
3503, 2
3504, 6
3505, 5
3506, 9
3507, 3
3508, 16
3509, 1
3510, 6
3511, 5
3512, 9
3514, 10
3515, 4
3516, 8
3517, 4
3518, 10
3519, 5
3520, 6
3521, 4
3522, 12
3524, 9
3525, 1
3526, 5
3527, 1
3528, 9
3529, 4
3530, 8
3531, 3
3532, 10
3533, 5
3534, 7
3535, 1
3536, 8
3537, 2
3539, 2
3540, 6
3542, 10
3543, 4
3544, 8
3545, 5
3546, 11
3547, 3
3548, 8
3549, 4
3550, 14
3551, 3
3552, 11
3553, 1
3554, 7
3555, 6
3556, 6
3557, 7
3558, 9
3559, 5
3560, 8
3561, 4
3562, 8
3564, 4
3565, 3
3566, 8
3567, 3
3568, 5
3570, 6
3571, 2
3572, 11
3573, 5
3574, 6
3575, 1
3576, 10
3577, 3
3578, 7
3579, 4
3580, 5
3581, 3
3582, 10
3583, 4
3584, 16
3585, 4
3586, 4
3587, 2
3588, 8
3589, 1
3590, 8
3591, 2
3592, 12
3593, 2
3594, 9
3595, 3
3596, 6
3597, 1
3598, 6
3599, 4
3600, 13
3602, 5
3603, 1
3604, 3
3605, 2
3606, 4
3607, 1
3608, 6
3609, 1
3610, 5
3611, 4
3612, 10
3613, 3
3614, 9
3615, 3
3616, 5
3617, 3
3618, 8
3619, 1
3620, 6
3621, 4
3622, 4
3623, 2
3624, 5
3625, 2
3626, 6
3627, 2
3628, 8
3629, 3
3630, 7
3631, 6
3632, 4
3633, 2
3634, 9
3635, 5
3636, 5
3638, 3
3639, 2
3640, 10
3641, 3
3642, 6
3643, 4
3644, 4
3645, 4
3646, 8
3647, 4
3648, 10
3649, 4
3650, 7
3651, 4
3652, 4
3653, 6
3654, 7
3655, 3
3656, 8
3657, 2
3658, 3
3659, 4
3660, 9
3661, 4
3662, 9
3663, 4
3664, 7
3665, 2
3666, 5
3667, 3
3668, 10
3669, 2
3670, 5
3671, 2
3672, 11
3673, 1
3674, 6
3676, 5
3677, 2
3678, 7
3679, 2
3680, 10
3681, 1
3682, 9
3683, 2
3684, 1
3685, 2
3686, 5
3687, 3
3688, 8
3689, 2
3690, 4
3691, 1
3692, 5
3693, 3
3694, 7
3695, 1
3696, 4
3697, 2
3698, 8
3699, 1
3700, 4
3701, 3
3702, 5
3703, 3
3704, 6
3705, 2
3706, 5
3707, 2
3708, 6
3709, 1
3710, 5
3711, 4
3712, 7
3713, 4
3714, 6
3715, 1
3716, 6
3717, 2
3718, 8
3720, 5
3721, 1
3722, 5
3723, 2
3724, 7
3725, 1
3726, 7
3727, 1
3728, 4
3729, 1
3730, 7
3731, 2
3732, 5
3733, 1
3734, 5
3735, 4
3736, 2
3737, 3
3738, 5
3739, 1
3740, 4
3741, 1
3742, 7
3743, 1
3744, 6
3745, 1
3746, 6
3747, 4
3748, 4
3749, 2
3750, 7
3752, 5
3753, 2
3754, 6
3755, 2
3756, 7
3757, 2
3758, 3
3759, 2
3760, 3
3761, 1
3762, 5
3763, 1
3764, 6
3766, 4
3767, 1
3768, 6
3769, 2
3770, 7
3771, 1
3772, 9
3773, 5
3774, 9
3776, 5
3777, 1
3778, 6
3779, 3
3780, 7
3781, 1
3782, 4
3783, 1
3784, 4
3785, 2
3786, 10
3787, 3
3788, 8
3789, 6
3790, 8
3791, 2
3792, 5
3793, 2
3794, 3
3795, 5
3796, 6
3797, 5
3798, 6
3800, 2
3801, 2
3802, 9
3803, 3
3804, 8
3805, 1
3806, 4
3807, 2
3808, 3
3809, 2
3810, 4
3811, 2
3812, 6
3813, 4
3814, 5
3815, 5
3816, 4
3817, 2
3818, 9
3819, 3
3820, 5
3821, 4
3822, 5
3824, 1
3825, 1
3826, 8
3827, 1
3828, 5
3829, 3
3832, 4
3833, 1
3834, 3
3835, 1
3836, 4
3837, 1
3838, 4
3839, 2
3840, 6
3841, 1
3842, 7
3844, 9
3845, 1
3846, 4
3847, 3
3848, 6
3849, 4
3850, 6
3851, 1
3852, 3
3853, 2
3854, 6
3856, 9
3857, 1
3858, 2
3859, 2
3860, 4
3862, 1
3863, 3
3864, 3
3865, 3
3866, 7
3867, 3
3868, 6
3869, 2
3870, 6
3871, 3
3872, 5
3873, 1
3874, 4
3875, 2
3876, 4
3877, 1
3878, 2
3879, 2
3880, 8
3881, 3
3882, 3
3883, 1
3884, 3
3885, 2
3886, 3
3888, 5
3890, 1
3891, 2
3892, 3
3894, 1
3895, 1
3896, 3
3897, 1
3898, 3
3900, 5
3901, 4
3902, 1
3903, 4
3904, 4
3905, 3
3906, 9
3907, 4
3908, 4
3909, 2
3910, 7
3912, 5
3913, 2
3914, 5
3915, 1
3916, 4
3917, 2
3918, 1
3919, 2
3920, 5
3921, 3
3922, 6
3923, 3
3924, 6
3925, 1
3926, 5
3927, 1
3928, 2
3929, 2
3930, 7
3931, 1
3932, 2
3933, 1
3934, 1
3936, 3
3938, 1
3939, 2
3940, 2
3942, 2
3943, 2
3944, 8
3945, 1
3946, 4
3947, 1
3948, 5
3949, 1
3950, 5
3951, 1
3952, 3
3953, 2
3954, 1
3955, 1
3956, 4
3958, 6
3959, 1
3960, 2
3961, 3
3962, 3
3963, 3
3964, 4
3966, 7
3967, 3
3968, 4
3970, 4
3971, 1
3972, 1
3973, 2
3974, 4
3976, 3
3977, 1
3978, 4
3979, 1
3980, 3
3981, 1
3982, 2
3983, 1
3984, 5
3986, 3
3987, 2
3988, 1
3989, 1
3990, 5
3991, 1
3992, 2
3994, 7
3995, 1
3996, 5
3997, 1
3998, 5
3999, 1
4000, 3
4001, 1
4002, 5
4003, 2
4004, 5
4005, 3
4006, 3
4008, 4
4009, 1
4010, 4
4012, 4
4013, 1
4014, 1
4015, 3
4016, 7
4017, 1
4018, 3
4019, 4
4020, 7
4021, 1
4022, 6
4023, 1
4024, 3
4025, 1
4026, 4
4027, 4
4028, 3
4030, 4
4031, 3
4032, 5
4033, 1
4034, 6
4036, 5
4037, 1
4038, 7
4039, 5
4041, 2
4042, 6
4043, 3
4044, 5
4045, 1
4046, 5
4048, 5
4049, 2
4050, 2
4051, 1
4052, 1
4053, 1
4054, 3
4055, 2
4056, 3
4058, 4
4059, 3
4060, 4
4062, 6
4063, 4
4064, 2
4065, 1
4067, 1
4068, 3
4069, 1
4070, 6
4072, 3
4073, 1
4074, 3
4075, 2
4076, 3
4077, 4
4078, 7
4080, 6
4081, 1
4082, 3
4083, 1
4084, 2
4085, 1
4086, 2
4087, 2
4088, 1
4089, 2
4090, 2
4091, 1
4092, 2
4093, 1
4094, 3
4095, 3
4096, 2
4097, 2
4098, 2
4099, 2
4102, 1
4103, 1
4104, 2
4106, 6
4107, 2
4108, 3
4109, 2
4110, 1
4112, 2
4113, 1
4114, 3
4115, 1
4116, 1
4118, 5
4119, 2
4120, 1
4121, 2
4122, 2
4125, 2
4126, 4
4127, 1
4128, 3
4129, 1
4130, 2
4132, 3
4133, 1
4134, 2
4135, 1
4136, 4
4137, 3
4138, 2
4140, 1
4141, 1
4143, 1
4144, 1
4146, 3
4148, 7
4150, 2
4151, 1
4152, 3
4153, 1
4154, 4
4155, 3
4156, 2
4157, 2
4158, 2
4159, 1
4160, 4
4163, 1
4164, 2
4165, 1
4166, 2
4167, 1
4169, 4
4170, 1
4171, 3
4172, 1
4173, 1
4174, 4
4175, 3
4176, 5
4177, 1
4178, 3
4180, 5
4181, 2
4183, 1
4184, 4
4186, 3
4187, 1
4188, 2
4190, 4
4191, 2
4192, 3
4194, 1
4195, 1
4196, 2
4197, 2
4199, 1
4200, 2
4201, 1
4202, 1
4204, 5
4205, 2
4206, 3
4208, 1
4209, 3
4210, 6
4211, 3
4213, 2
4214, 3
4215, 2
4216, 2
4218, 3
4219, 1
4220, 3
4221, 1
4222, 4
4223, 2
4224, 1
4225, 2
4226, 1
4228, 2
4230, 4
4231, 2
4232, 2
4234, 1
4236, 2
4237, 1
4238, 3
4239, 1
4240, 1
4242, 6
4244, 3
4246, 4
4248, 4
4250, 1
4251, 1
4252, 2
4254, 2
4255, 1
4256, 1
4258, 7
4259, 1
4260, 1
4261, 1
4262, 4
4263, 2
4264, 3
4265, 2
4266, 3
4268, 5
4269, 1
4270, 2
4272, 1
4273, 1
4274, 6
4276, 1
4278, 2
4280, 1
4284, 3
4285, 3
4286, 1
4287, 1
4288, 2
4289, 1
4290, 4
4291, 2
4292, 2
4293, 1
4294, 3
4295, 1
4296, 3
4297, 2
4298, 1
4300, 2
4301, 1
4302, 2
4303, 1
4304, 1
4305, 1
4306, 2
4307, 2
4308, 4
4309, 2
4312, 3
4314, 2
4315, 1
4316, 6
4318, 3
4319, 1
4321, 2
4322, 3
4325, 1
4328, 2
4330, 3
4332, 3
4334, 4
4338, 2
4340, 2
4342, 2
4344, 4
4345, 1
4346, 1
4348, 4
4350, 1
4351, 1
4352, 3
4353, 1
4354, 1
4355, 1
4356, 5
4357, 1
4359, 1
4360, 1
4361, 1
4362, 3
4364, 2
4365, 1
4368, 1
4369, 3
4370, 1
4372, 1
4376, 3
4378, 1
4379, 1
4380, 2
4382, 3
4384, 3
4385, 3
4388, 2
4389, 3
4390, 1
4392, 2
4394, 1
4396, 4
4397, 2
4398, 1
4400, 1
4402, 3
4403, 3
4408, 1
4410, 2
4411, 1
4414, 2
4415, 1
4416, 4
4417, 1
4418, 2
4420, 1
4421, 1
4422, 1
4424, 5
4426, 5
4427, 2
4430, 6
4432, 3
4433, 2
4434, 2
4436, 1
4437, 1
4438, 2
4439, 1
4440, 1
4441, 1
4442, 1
4443, 2
4450, 5
4451, 1
4453, 1
4454, 3
4455, 1
4456, 1
4459, 3
4460, 2
4461, 1
4463, 1
4465, 1
4466, 2
4467, 1
4468, 3
4469, 2
4470, 3
4472, 3
4473, 1
4474, 2
4476, 3
4477, 1
4478, 1
4479, 1
4480, 1
4481, 1
4484, 1
4486, 1
4487, 1
4488, 2
4489, 1
4492, 3
4493, 1
4494, 2
4496, 1
4497, 1
4498, 2
4500, 1
4503, 1
4504, 2
4506, 1
4508, 1
4509, 1
4510, 1
4512, 1
4513, 2
4514, 2
4516, 2
4518, 1
4520, 3
4521, 1
4522, 2
4525, 1
4526, 2
4527, 1
4528, 2
4530, 1
4531, 1
4532, 3
4535, 2
4536, 1
4537, 1
4538, 4
4540, 1
4542, 4
4544, 2
4545, 1
4546, 3
4549, 2
4550, 3
4552, 2
4553, 1
4554, 4
4557, 2
4558, 1
4559, 1
4560, 1
4562, 1
4564, 2
4567, 1
4568, 2
4570, 1
4571, 1
4572, 2
4574, 1
4576, 2
4578, 2
4581, 1
4582, 3
4583, 1
4584, 4
4586, 5
4588, 1
4591, 1
4592, 3
4594, 3
4595, 1
4596, 2
4597, 2
4601, 1
4602, 4
4606, 1
4608, 2
4609, 1
4611, 1
4612, 1
4614, 3
4615, 2
4617, 1
4618, 2
4620, 1
4622, 1
4625, 1
4626, 1
4630, 1
4631, 1
4633, 1
4640, 2
4641, 2
4642, 2
4644, 2
4646, 1
4648, 3
4650, 2
4652, 1
4656, 1
4658, 7
4661, 1
4662, 3
4663, 1
4665, 1
4668, 1
4670, 1
4673, 1
4674, 2
4677, 1
4678, 1
4680, 3
4682, 1
4684, 2
4686, 1
4687, 1
4688, 2
4689, 1
4690, 2
4691, 1
4692, 1
4697, 1
4698, 3
4702, 2
4704, 2
4705, 2
4707, 1
4708, 2
4709, 1
4710, 2
4713, 3
4716, 1
4719, 1
4721, 2
4722, 1
4723, 1
4725, 1
4726, 1
4727, 1
4728, 3
4729, 1
4730, 1
4734, 3
4736, 1
4740, 1
4742, 1
4743, 1
4744, 1
4745, 1
4748, 2
4750, 1
4751, 1
4752, 1
4753, 1
4756, 3
4758, 2
4759, 3
4765, 1
4767, 1
4772, 1
4779, 1
4780, 1
4782, 2
4784, 1
4785, 1
4786, 2
4787, 1
4788, 1
4793, 1
4794, 1
4795, 2
4796, 1
4801, 1
4802, 3
4804, 1
4805, 1
4806, 2
4810, 1
4812, 1
4814, 1
4816, 1
4820, 1
4822, 1
4824, 2
4826, 1
4828, 2
4829, 1
4830, 1
4831, 1
4832, 1
4833, 2
4834, 2
4835, 1
4836, 1
4837, 1
4839, 1
4840, 1
4841, 1
4842, 1
4844, 1
4846, 3
4848, 2
4849, 1
4850, 4
4852, 1
4853, 1
4855, 1
4858, 1
4860, 1
4862, 2
4863, 1
4864, 1
4866, 2
4868, 1
4870, 3
4872, 3
4874, 4
4875, 1
4877, 2
4881, 2
4882, 1
4884, 3
4886, 1
4888, 2
4890, 1
4892, 1
4900, 1
4902, 2
4904, 1
4911, 1
4914, 3
4916, 2
4919, 1
4920, 1
4922, 1
4924, 1
4927, 1
4930, 1
4932, 1
4934, 3
4939, 1
4942, 1
4944, 2
4946, 1
4948, 1
4949, 1
4951, 1
4958, 2
4960, 1
4961, 1
4963, 1
4964, 2
4966, 1
4972, 2
4976, 1
4982, 1
4983, 2
4984, 1
4988, 2
4990, 1
4991, 1
4994, 1
4996, 2
4998, 1
4999, 1
5000, 1
5004, 1
5005, 1
5006, 1
5007, 1
5008, 3
5011, 1
5012, 1
5016, 2
5022, 1
5026, 1
5027, 1
5030, 1
5036, 1
5037, 1
5038, 1
5040, 1
5041, 1
5050, 1
5052, 1
5061, 1
5064, 1
5065, 1
5066, 1
5069, 1
5070, 2
5072, 1
5074, 1
5080, 1
5084, 1
5087, 1
5088, 1
5089, 1
5095, 1
5102, 1
5103, 3
5105, 1
5108, 1
5109, 1
5111, 2
5114, 1
5116, 1
5118, 1
5126, 1
5128, 1
5131, 2
5134, 1
5135, 2
5137, 1
5144, 1
5165, 1
5167, 1
5169, 1
5170, 2
5176, 1
5178, 1
5183, 1
5184, 1
5186, 1
5188, 1
5190, 2
5192, 1
5193, 1
5197, 1
5198, 1
5206, 2
5208, 1
5212, 1
5218, 1
5224, 1
5227, 1
5233, 1
5238, 1
5247, 1
5251, 1
5252, 2
5258, 1
5259, 1
5260, 1
5262, 3
5266, 2
5267, 1
5273, 1
5275, 1
5284, 1
5287, 1
5289, 1
5290, 1
5306, 2
5307, 1
5308, 4
5309, 1
5311, 1
5312, 1
5314, 1
5327, 1
5338, 1
5341, 1
5342, 1
5344, 1
5347, 1
5348, 1
5352, 1
5358, 1
5361, 1
5364, 1
5370, 1
5372, 1
5378, 1
5382, 1
5386, 2
5400, 1
5404, 1
5408, 1
5409, 1
5410, 1
5412, 1
5414, 1
5418, 2
5428, 1
5443, 1
5444, 1
5448, 1
5452, 1
5464, 1
5468, 2
5471, 1
5472, 1
5490, 1
5492, 1
5502, 1
5511, 1
5513, 1
5514, 1
5517, 1
5522, 1
5528, 1
5530, 2
5540, 1
5547, 1
5552, 1
5553, 1
5554, 1
5555, 1
5560, 1
5562, 1
5567, 1
5576, 1
5577, 1
5580, 1
5582, 1
5585, 1
5586, 1
5594, 1
5601, 1
5608, 1
5612, 1
5625, 1
5627, 2
5630, 1
5640, 1
5682, 1
5690, 1
5696, 1
5698, 1
5703, 1
5704, 1
5740, 1
5744, 1
5758, 1
5761, 1
5763, 1
5767, 1
5775, 1
5786, 1
5796, 1
5798, 1
5814, 1
5815, 1
5816, 1
5817, 1
5822, 1
5842, 1
5850, 1
5858, 1
5868, 1
5875, 1
5876, 1
5892, 1
5902, 1
5906, 1
5923, 1
5924, 1
5926, 1
5935, 1
5966, 1
5972, 1
5974, 2
5980, 1
5992, 1
6000, 1
6004, 1
6008, 1
6022, 1
6028, 1
6029, 1
6030, 1
6034, 1
6044, 1
6065, 1
6068, 1
6082, 1
6096, 1
6108, 2
6118, 1
6128, 1
6136, 1
6138, 1
6148, 1
6151, 1
6164, 1
6183, 1
6196, 1
6252, 1
6266, 1
6269, 1
6289, 1
6293, 1
6308, 1
6321, 1
6343, 1
6360, 1
6402, 1
6452, 1
6470, 1
6473, 1
6528, 1
6634, 1
6648, 1
6698, 1
6754, 1
6886, 1
7180, 1
7190, 1
7366, 2
7387, 1
7498, 1
7524, 1
7556, 1
7633, 1
7648, 1
8441, 1
8646, 1
8925, 1
9312, 1
9759, 1
