\begin{tikzpicture}
  \draw (0,0) node[carte]{\begin{tikzpicture}
      \draw (0, -0em) node[symbole] {1};
      \draw (0, -1em) node[symbole] {3};
      \draw (0, -2em) node[symbole] {\vdots};
      \end{tikzpicture}};
  \draw (1,0) node[carte]{\begin{tikzpicture}
      \draw (0, -0em) node[symbole] {2};
      \draw (0, -1em) node[symbole] {3};
      \draw (0, -2em) node[symbole] {\vdots};
      \end{tikzpicture}};
\end{tikzpicture}
